# MagicaVoxel @ Ephtracy

# group
o 

# material
mtllib vine1.mtl
usemtl palette

# normals
vn -1 0 0
vn 1 0 0
vn 0 0 1
vn 0 0 -1
vn 0 -1 0
vn 0 1 0

# texcoords
vt 0.529297 0.5
vt 0.623047 0.5

# verts
v -1.2 0.1 4.47035e-008
v -1.2 0.1 -0.1
v -1.2 0.2 4.47035e-008
v -1.2 0.2 -0.1
v -1.1 0 4.47035e-008
v -1.1 0 -0.1
v -1.1 0.1 4.47035e-008
v -1.1 0.1 -0.1
v -1 0.2 0.1
v -1 0.2 4.47035e-008
v -1 0.2 -0.1
v -1 0.3 0.1
v -1 0.3 4.47035e-008
v -1 0.4 4.47035e-008
v -1 0.4 -0.1
v -0.8 0.2 4.47035e-008
v -0.8 0.2 -0.1
v -0.8 0.3 4.47035e-008
v -0.8 0.3 -0.1
v -0.8 0.3 -0.2
v -0.8 0.4 -0.1
v -0.8 0.6 -0.1
v -0.8 0.6 -0.2
v -1 0 4.47035e-008
v -1 0 -0.1
v -1 0.1 4.47035e-008
v -1 0.1 -0.1
v -0.9 0.1 4.47035e-008
v -0.9 0.1 -0.1
v -0.9 0.2 0.1
v -0.9 0.2 4.47035e-008
v -0.9 0.3 0.1
v -0.9 0.3 4.47035e-008
v -0.9 0.3 -0.1
v -0.7 0.2 4.47035e-008
v -0.7 0.2 -0.1
v -0.7 0.3 4.47035e-008
v -0.7 0.3 -0.1
v -0.7 0.3 -0.2
v -0.7 0.4 4.47035e-008
v -0.7 0.4 -0.1
v -0.7 0.5 -0.1
v -0.7 0.5 -0.2
v -0.6 0.5 -0.1
v -0.6 0.5 -0.2
v -0.6 0.6 -0.1
v -0.6 0.6 -0.2
v -1 0.2 0.1
v -1 0.3 0.1
v -0.9 0.2 0.1
v -0.9 0.3 0.1
v -1.2 0.1 4.47035e-008
v -1.2 0.2 4.47035e-008
v -1.1 0 4.47035e-008
v -1.1 0.1 4.47035e-008
v -1.1 0.2 4.47035e-008
v -1 0 4.47035e-008
v -1 0.1 4.47035e-008
v -1 0.2 4.47035e-008
v -1 0.3 4.47035e-008
v -1 0.4 4.47035e-008
v -0.9 0.1 4.47035e-008
v -0.9 0.2 4.47035e-008
v -0.9 0.3 4.47035e-008
v -0.8 0.2 4.47035e-008
v -0.8 0.3 4.47035e-008
v -0.7 0.2 4.47035e-008
v -0.7 0.3 4.47035e-008
v -0.7 0.4 4.47035e-008
v -0.8 0.4 -0.1
v -0.8 0.6 -0.1
v -0.7 0.4 -0.1
v -0.7 0.5 -0.1
v -0.7 0.6 -0.1
v -0.6 0.5 -0.1
v -0.6 0.6 -0.1
v -1.2 0.1 -0.1
v -1.2 0.2 -0.1
v -1.1 0 -0.1
v -1.1 0.1 -0.1
v -1.1 0.2 -0.1
v -1 0 -0.1
v -1 0.1 -0.1
v -1 0.2 -0.1
v -1 0.4 -0.1
v -0.9 0.1 -0.1
v -0.9 0.3 -0.1
v -0.8 0.2 -0.1
v -0.8 0.3 -0.1
v -0.8 0.4 -0.1
v -0.7 0.2 -0.1
v -0.7 0.3 -0.1
v -0.8 0.3 -0.2
v -0.8 0.6 -0.2
v -0.7 0.3 -0.2
v -0.7 0.5 -0.2
v -0.7 0.6 -0.2
v -0.6 0.5 -0.2
v -0.6 0.6 -0.2
v -1.1 0 4.47035e-008
v -1 0 4.47035e-008
v -1.1 0 -0.1
v -1 0 -0.1
v -1.2 0.1 4.47035e-008
v -1.1 0.1 4.47035e-008
v -1 0.1 4.47035e-008
v -0.9 0.1 4.47035e-008
v -1.2 0.1 -0.1
v -1.1 0.1 -0.1
v -1 0.1 -0.1
v -0.9 0.1 -0.1
v -1 0.2 0.1
v -0.9 0.2 0.1
v -1 0.2 4.47035e-008
v -0.9 0.2 4.47035e-008
v -0.8 0.2 4.47035e-008
v -0.7 0.2 4.47035e-008
v -0.8 0.2 -0.1
v -0.7 0.2 -0.1
v -0.9 0.3 4.47035e-008
v -0.8 0.3 4.47035e-008
v -0.9 0.3 -0.1
v -0.8 0.3 -0.1
v -0.7 0.3 -0.1
v -0.8 0.3 -0.2
v -0.7 0.3 -0.2
v -0.7 0.5 -0.1
v -0.6 0.5 -0.1
v -0.7 0.5 -0.2
v -0.6 0.5 -0.2
v -1.2 0.2 4.47035e-008
v -1.1 0.2 4.47035e-008
v -1 0.2 4.47035e-008
v -1.2 0.2 -0.1
v -1.1 0.2 -0.1
v -1 0.2 -0.1
v -1 0.3 0.1
v -0.9 0.3 0.1
v -1 0.3 4.47035e-008
v -0.9 0.3 4.47035e-008
v -1 0.4 4.47035e-008
v -0.7 0.4 4.47035e-008
v -1 0.4 -0.1
v -0.8 0.4 -0.1
v -0.7 0.4 -0.1
v -0.8 0.6 -0.1
v -0.7 0.6 -0.1
v -0.6 0.6 -0.1
v -0.8 0.6 -0.2
v -0.7 0.6 -0.2
v -0.6 0.6 -0.2

# faces
f 3/2/1 2/2/1 1/2/1
f 4/2/1 2/2/1 3/2/1
f 7/1/1 6/1/1 5/1/1
f 8/1/1 6/1/1 7/1/1
f 12/2/1 10/2/1 9/2/1
f 13/1/1 11/1/1 10/1/1
f 13/2/1 10/2/1 12/2/1
f 14/1/1 11/1/1 13/1/1
f 15/1/1 11/1/1 14/1/1
f 18/2/1 17/2/1 16/2/1
f 19/2/1 17/2/1 18/2/1
f 21/1/1 20/1/1 19/1/1
f 22/1/1 20/1/1 21/1/1
f 23/1/1 20/1/1 22/1/1
f 24/1/2 25/1/2 26/1/2
f 26/1/2 25/1/2 27/1/2
f 28/1/2 29/1/2 31/1/2
f 30/2/2 31/2/2 32/2/2
f 31/1/2 29/1/2 33/1/2
f 32/2/2 31/2/2 33/2/2
f 33/1/2 29/1/2 34/1/2
f 35/2/2 36/2/2 37/2/2
f 37/2/2 36/2/2 38/2/2
f 37/1/2 38/1/2 40/1/2
f 38/1/2 39/1/2 40/1/2
f 40/1/2 39/1/2 41/1/2
f 41/1/2 39/1/2 42/1/2
f 42/1/2 39/1/2 43/1/2
f 44/2/2 45/2/2 46/2/2
f 46/2/2 45/2/2 47/2/2
f 50/2/3 49/2/3 48/2/3
f 51/2/3 49/2/3 50/2/3
f 55/2/3 53/2/3 52/2/3
f 56/2/3 53/2/3 55/2/3
f 57/1/3 55/1/3 54/1/3
f 57/1/3 56/1/3 55/1/3
f 58/1/3 56/1/3 57/1/3
f 59/1/3 56/1/3 58/1/3
f 62/1/3 59/1/3 58/1/3
f 63/1/3 59/1/3 62/1/3
f 64/1/3 61/1/3 60/1/3
f 66/1/3 61/1/3 64/1/3
f 67/2/3 66/2/3 65/2/3
f 68/1/3 61/1/3 66/1/3
f 68/2/3 66/2/3 67/2/3
f 69/1/3 61/1/3 68/1/3
f 72/1/3 71/1/3 70/1/3
f 73/1/3 71/1/3 72/1/3
f 74/1/3 71/1/3 73/1/3
f 75/2/3 74/2/3 73/2/3
f 76/2/3 74/2/3 75/2/3
f 77/2/4 78/2/4 80/2/4
f 80/2/4 78/2/4 81/2/4
f 79/1/4 80/1/4 82/1/4
f 80/1/4 81/1/4 82/1/4
f 82/1/4 81/1/4 83/1/4
f 83/1/4 81/1/4 84/1/4
f 83/1/4 84/1/4 86/1/4
f 84/1/4 85/1/4 86/1/4
f 86/1/4 85/1/4 87/1/4
f 87/1/4 85/1/4 89/1/4
f 89/1/4 85/1/4 90/1/4
f 88/2/4 89/2/4 91/2/4
f 91/2/4 89/2/4 92/2/4
f 93/1/4 94/1/4 95/1/4
f 95/1/4 94/1/4 96/1/4
f 96/1/4 94/1/4 97/1/4
f 96/2/4 97/2/4 98/2/4
f 98/2/4 97/2/4 99/2/4
f 102/1/5 101/1/5 100/1/5
f 103/1/5 101/1/5 102/1/5
f 108/2/5 105/2/5 104/2/5
f 109/2/5 105/2/5 108/2/5
f 110/1/5 107/1/5 106/1/5
f 111/1/5 107/1/5 110/1/5
f 114/2/5 113/2/5 112/2/5
f 115/2/5 113/2/5 114/2/5
f 118/2/5 117/2/5 116/2/5
f 119/2/5 117/2/5 118/2/5
f 122/1/5 121/1/5 120/1/5
f 123/1/5 121/1/5 122/1/5
f 125/1/5 124/1/5 123/1/5
f 126/1/5 124/1/5 125/1/5
f 129/2/5 128/2/5 127/2/5
f 130/2/5 128/2/5 129/2/5
f 131/2/6 132/2/6 134/2/6
f 132/1/6 133/1/6 135/1/6
f 134/2/6 132/2/6 135/2/6
f 135/1/6 133/1/6 136/1/6
f 137/2/6 138/2/6 139/2/6
f 139/2/6 138/2/6 140/2/6
f 141/1/6 142/1/6 143/1/6
f 143/1/6 142/1/6 144/1/6
f 144/1/6 142/1/6 145/1/6
f 146/1/6 147/1/6 149/1/6
f 147/2/6 148/2/6 150/2/6
f 149/1/6 147/1/6 150/1/6
f 150/2/6 148/2/6 151/2/6
