# MagicaVoxel @ Ephtracy

# group
o 

# material
mtllib bridge_2.mtl
usemtl palette

# normals
vn -1 0 0
vn 1 0 0
vn 0 0 1
vn 0 0 -1
vn 0 -1 0
vn 0 1 0

# texcoords
vt 0.990234 0.5
vt 0.994141 0.5

# verts
v -0.6 0.4 1.1
v -0.6 0.4 -0.6
v -0.6 0.5 1.1
v -0.6 0.5 1
v -0.6 0.5 -0.5
v -0.6 0.5 -0.6
v -0.6 0.6 1.1
v -0.6 0.6 1
v -0.6 0.6 -0.5
v -0.6 0.6 -0.6
v -0.5 0 1
v -0.5 0 0.9
v -0.5 0 -0.4
v -0.5 0 -0.5
v -0.5 0.1 1
v -0.5 0.1 0.9
v -0.5 0.1 0.8
v -0.5 0.1 -0.3
v -0.5 0.1 -0.4
v -0.5 0.1 -0.5
v -0.5 0.2 0.9
v -0.5 0.2 0.8
v -0.5 0.2 0.7
v -0.5 0.2 -0.2
v -0.5 0.2 -0.3
v -0.5 0.2 -0.4
v -0.5 0.3 1
v -0.5 0.3 0.9
v -0.5 0.3 0.8
v -0.5 0.3 0.7
v -0.5 0.3 0.6
v -0.5 0.3 0.3
v -0.5 0.3 0.2
v -0.5 0.3 -0.1
v -0.5 0.3 -0.2
v -0.5 0.3 -0.3
v -0.5 0.3 -0.4
v -0.5 0.3 -0.5
v -0.5 0.4 1
v -0.5 0.4 0.9
v -0.5 0.4 0.7
v -0.5 0.4 0.6
v -0.5 0.4 0.3
v -0.5 0.4 0.2
v -0.5 0.4 -0.1
v -0.5 0.4 -0.2
v -0.5 0.4 -0.4
v -0.5 0.4 -0.5
v -0.1 0 1
v -0.1 0 0.9
v -0.1 0 -0.4
v -0.1 0 -0.5
v -0.1 0.1 1
v -0.1 0.1 0.9
v -0.1 0.1 0.8
v -0.1 0.1 -0.3
v -0.1 0.1 -0.4
v -0.1 0.1 -0.5
v -0.1 0.2 0.9
v -0.1 0.2 0.8
v -0.1 0.2 0.7
v -0.1 0.2 -0.2
v -0.1 0.2 -0.3
v -0.1 0.2 -0.4
v -0.1 0.3 1
v -0.1 0.3 0.9
v -0.1 0.3 0.8
v -0.1 0.3 0.7
v -0.1 0.3 -0.2
v -0.1 0.3 -0.3
v -0.1 0.3 -0.4
v -0.1 0.3 -0.5
v -5.96046e-008 0.4 1.1
v -5.96046e-008 0.4 1
v -5.96046e-008 0.4 0.9
v -5.96046e-008 0.4 0.7
v -5.96046e-008 0.4 0.6
v -5.96046e-008 0.4 0.3
v -5.96046e-008 0.4 0.2
v -5.96046e-008 0.4 -0.1
v -5.96046e-008 0.4 -0.2
v -5.96046e-008 0.4 -0.4
v -5.96046e-008 0.4 -0.5
v -5.96046e-008 0.4 -0.6
v -5.96046e-008 0.5 1.1
v -5.96046e-008 0.5 1
v -5.96046e-008 0.5 -0.5
v -5.96046e-008 0.5 -0.6
v -5.96046e-008 0.6 1.1
v -5.96046e-008 0.6 1
v -5.96046e-008 0.6 -0.5
v -5.96046e-008 0.6 -0.6
v -0.5 0.4 1.1
v -0.5 0.4 1
v -0.5 0.4 0.9
v -0.5 0.4 0.7
v -0.5 0.4 0.6
v -0.5 0.4 0.3
v -0.5 0.4 0.2
v -0.5 0.4 -0.1
v -0.5 0.4 -0.2
v -0.5 0.4 -0.4
v -0.5 0.4 -0.5
v -0.5 0.4 -0.6
v -0.5 0.5 1.1
v -0.5 0.5 1
v -0.5 0.5 -0.5
v -0.5 0.5 -0.6
v -0.5 0.6 1.1
v -0.5 0.6 1
v -0.5 0.6 -0.5
v -0.5 0.6 -0.6
v -0.4 0 1
v -0.4 0 0.9
v -0.4 0 -0.4
v -0.4 0 -0.5
v -0.4 0.1 1
v -0.4 0.1 0.9
v -0.4 0.1 0.8
v -0.4 0.1 -0.3
v -0.4 0.1 -0.4
v -0.4 0.1 -0.5
v -0.4 0.2 0.9
v -0.4 0.2 0.8
v -0.4 0.2 0.7
v -0.4 0.2 -0.2
v -0.4 0.2 -0.3
v -0.4 0.2 -0.4
v -0.4 0.3 1
v -0.4 0.3 0.9
v -0.4 0.3 0.8
v -0.4 0.3 0.7
v -0.4 0.3 -0.2
v -0.4 0.3 -0.3
v -0.4 0.3 -0.4
v -0.4 0.3 -0.5
v -5.96046e-008 0 1
v -5.96046e-008 0 0.9
v -5.96046e-008 0 -0.4
v -5.96046e-008 0 -0.5
v -5.96046e-008 0.1 1
v -5.96046e-008 0.1 0.9
v -5.96046e-008 0.1 0.8
v -5.96046e-008 0.1 -0.3
v -5.96046e-008 0.1 -0.4
v -5.96046e-008 0.1 -0.5
v -5.96046e-008 0.2 0.9
v -5.96046e-008 0.2 0.8
v -5.96046e-008 0.2 0.7
v -5.96046e-008 0.2 -0.2
v -5.96046e-008 0.2 -0.3
v -5.96046e-008 0.2 -0.4
v -5.96046e-008 0.3 1
v -5.96046e-008 0.3 0.9
v -5.96046e-008 0.3 0.8
v -5.96046e-008 0.3 0.7
v -5.96046e-008 0.3 0.6
v -5.96046e-008 0.3 0.3
v -5.96046e-008 0.3 0.2
v -5.96046e-008 0.3 -0.1
v -5.96046e-008 0.3 -0.2
v -5.96046e-008 0.3 -0.3
v -5.96046e-008 0.3 -0.4
v -5.96046e-008 0.3 -0.5
v -5.96046e-008 0.4 1
v -5.96046e-008 0.4 0.9
v -5.96046e-008 0.4 0.7
v -5.96046e-008 0.4 0.6
v -5.96046e-008 0.4 0.3
v -5.96046e-008 0.4 0.2
v -5.96046e-008 0.4 -0.1
v -5.96046e-008 0.4 -0.2
v -5.96046e-008 0.4 -0.4
v -5.96046e-008 0.4 -0.5
v 0.1 0.4 1.1
v 0.1 0.4 -0.6
v 0.1 0.5 1.1
v 0.1 0.5 1
v 0.1 0.5 -0.5
v 0.1 0.5 -0.6
v 0.1 0.6 1.1
v 0.1 0.6 1
v 0.1 0.6 -0.5
v 0.1 0.6 -0.6
v -0.6 0.4 1.1
v -0.6 0.5 1.1
v -0.6 0.6 1.1
v -0.5 0.4 1.1
v -0.5 0.5 1.1
v -0.5 0.6 1.1
v -5.96046e-008 0.4 1.1
v -5.96046e-008 0.5 1.1
v -5.96046e-008 0.6 1.1
v 0.1 0.4 1.1
v 0.1 0.5 1.1
v 0.1 0.6 1.1
v -0.5 0 1
v -0.5 0.1 1
v -0.5 0.3 1
v -0.5 0.4 1
v -0.4 0 1
v -0.4 0.1 1
v -0.4 0.3 1
v -0.3 0.3 1
v -0.3 0.4 1
v -0.2 0.3 1
v -0.2 0.4 1
v -0.1 0 1
v -0.1 0.1 1
v -0.1 0.3 1
v -5.96046e-008 0 1
v -5.96046e-008 0.1 1
v -5.96046e-008 0.3 1
v -5.96046e-008 0.4 1
v -0.5 0.2 -0.2
v -0.5 0.3 -0.2
v -0.4 0.2 -0.2
v -0.4 0.3 -0.2
v -0.1 0.2 -0.2
v -0.1 0.3 -0.2
v -5.96046e-008 0.2 -0.2
v -5.96046e-008 0.3 -0.2
v -0.5 0.1 -0.3
v -0.5 0.2 -0.3
v -0.4 0.1 -0.3
v -0.4 0.2 -0.3
v -0.1 0.1 -0.3
v -0.1 0.2 -0.3
v -5.96046e-008 0.1 -0.3
v -5.96046e-008 0.2 -0.3
v -0.5 0 -0.4
v -0.5 0.1 -0.4
v -0.4 0 -0.4
v -0.4 0.1 -0.4
v -0.1 0 -0.4
v -0.1 0.1 -0.4
v -5.96046e-008 0 -0.4
v -5.96046e-008 0.1 -0.4
v -0.6 0.5 -0.5
v -0.6 0.6 -0.5
v -0.5 0.5 -0.5
v -0.5 0.6 -0.5
v -5.96046e-008 0.5 -0.5
v -5.96046e-008 0.6 -0.5
v 0.1 0.5 -0.5
v 0.1 0.6 -0.5
v -0.6 0.5 1
v -0.6 0.6 1
v -0.5 0.5 1
v -0.5 0.6 1
v -5.96046e-008 0.5 1
v -5.96046e-008 0.6 1
v 0.1 0.5 1
v 0.1 0.6 1
v -0.5 0 0.9
v -0.5 0.1 0.9
v -0.4 0 0.9
v -0.4 0.1 0.9
v -0.1 0 0.9
v -0.1 0.1 0.9
v -5.96046e-008 0 0.9
v -5.96046e-008 0.1 0.9
v -0.5 0.1 0.8
v -0.5 0.2 0.8
v -0.4 0.1 0.8
v -0.4 0.2 0.8
v -0.1 0.1 0.8
v -0.1 0.2 0.8
v -5.96046e-008 0.1 0.8
v -5.96046e-008 0.2 0.8
v -0.5 0.2 0.7
v -0.5 0.3 0.7
v -0.4 0.2 0.7
v -0.4 0.3 0.7
v -0.1 0.2 0.7
v -0.1 0.3 0.7
v -5.96046e-008 0.2 0.7
v -5.96046e-008 0.3 0.7
v -0.5 0 -0.5
v -0.5 0.1 -0.5
v -0.5 0.3 -0.5
v -0.5 0.4 -0.5
v -0.4 0 -0.5
v -0.4 0.1 -0.5
v -0.4 0.3 -0.5
v -0.3 0.3 -0.5
v -0.3 0.4 -0.5
v -0.2 0.3 -0.5
v -0.2 0.4 -0.5
v -0.1 0 -0.5
v -0.1 0.1 -0.5
v -0.1 0.3 -0.5
v -5.96046e-008 0 -0.5
v -5.96046e-008 0.1 -0.5
v -5.96046e-008 0.3 -0.5
v -5.96046e-008 0.4 -0.5
v -0.6 0.4 -0.6
v -0.6 0.5 -0.6
v -0.6 0.6 -0.6
v -0.5 0.4 -0.6
v -0.5 0.5 -0.6
v -0.5 0.6 -0.6
v -5.96046e-008 0.4 -0.6
v -5.96046e-008 0.5 -0.6
v -5.96046e-008 0.6 -0.6
v 0.1 0.4 -0.6
v 0.1 0.5 -0.6
v 0.1 0.6 -0.6
v -0.5 0 1
v -0.4 0 1
v -0.1 0 1
v -5.96046e-008 0 1
v -0.5 0 0.9
v -0.4 0 0.9
v -0.1 0 0.9
v -5.96046e-008 0 0.9
v -0.5 0 -0.4
v -0.4 0 -0.4
v -0.1 0 -0.4
v -5.96046e-008 0 -0.4
v -0.5 0 -0.5
v -0.4 0 -0.5
v -0.1 0 -0.5
v -5.96046e-008 0 -0.5
v -0.5 0.1 0.9
v -0.4 0.1 0.9
v -0.1 0.1 0.9
v -5.96046e-008 0.1 0.9
v -0.5 0.1 0.8
v -0.4 0.1 0.8
v -0.1 0.1 0.8
v -5.96046e-008 0.1 0.8
v -0.5 0.1 -0.3
v -0.4 0.1 -0.3
v -0.1 0.1 -0.3
v -5.96046e-008 0.1 -0.3
v -0.5 0.1 -0.4
v -0.4 0.1 -0.4
v -0.1 0.1 -0.4
v -5.96046e-008 0.1 -0.4
v -0.5 0.2 0.8
v -0.4 0.2 0.8
v -0.1 0.2 0.8
v -5.96046e-008 0.2 0.8
v -0.5 0.2 0.7
v -0.4 0.2 0.7
v -0.1 0.2 0.7
v -5.96046e-008 0.2 0.7
v -0.5 0.2 -0.2
v -0.4 0.2 -0.2
v -0.1 0.2 -0.2
v -5.96046e-008 0.2 -0.2
v -0.5 0.2 -0.3
v -0.4 0.2 -0.3
v -0.1 0.2 -0.3
v -5.96046e-008 0.2 -0.3
v -0.4 0.3 1
v -0.3 0.3 1
v -0.2 0.3 1
v -0.1 0.3 1
v -0.4 0.3 0.9
v -0.3 0.3 0.9
v -0.2 0.3 0.9
v -0.1 0.3 0.9
v -0.4 0.3 0.8
v -0.3 0.3 0.8
v -0.2 0.3 0.8
v -0.1 0.3 0.8
v -0.5 0.3 0.7
v -0.4 0.3 0.7
v -0.3 0.3 0.7
v -0.2 0.3 0.7
v -0.1 0.3 0.7
v -5.96046e-008 0.3 0.7
v -0.5 0.3 0.6
v -0.4 0.3 0.6
v -0.3 0.3 0.6
v -0.2 0.3 0.6
v -0.1 0.3 0.6
v -5.96046e-008 0.3 0.6
v -0.3 0.3 0.5
v -0.2 0.3 0.5
v -0.4 0.3 0.4
v -0.3 0.3 0.4
v -0.2 0.3 0.4
v -0.1 0.3 0.4
v -0.5 0.3 0.3
v -0.4 0.3 0.3
v -0.3 0.3 0.3
v -0.2 0.3 0.3
v -0.1 0.3 0.3
v -5.96046e-008 0.3 0.3
v -0.5 0.3 0.2
v -0.4 0.3 0.2
v -0.3 0.3 0.2
v -0.2 0.3 0.2
v -0.1 0.3 0.2
v -5.96046e-008 0.3 0.2
v -0.4 0.3 0.0999999
v -0.3 0.3 0.0999999
v -0.2 0.3 0.0999999
v -0.1 0.3 0.0999999
v -0.3 0.3 -1.19209e-007
v -0.2 0.3 -1.19209e-007
v -0.5 0.3 -0.1
v -0.4 0.3 -0.1
v -0.3 0.3 -0.1
v -0.2 0.3 -0.1
v -0.1 0.3 -0.1
v -5.96046e-008 0.3 -0.1
v -0.5 0.3 -0.2
v -0.4 0.3 -0.2
v -0.3 0.3 -0.2
v -0.2 0.3 -0.2
v -0.1 0.3 -0.2
v -5.96046e-008 0.3 -0.2
v -0.4 0.3 -0.3
v -0.3 0.3 -0.3
v -0.2 0.3 -0.3
v -0.1 0.3 -0.3
v -0.4 0.3 -0.4
v -0.3 0.3 -0.4
v -0.2 0.3 -0.4
v -0.1 0.3 -0.4
v -0.4 0.3 -0.5
v -0.3 0.3 -0.5
v -0.2 0.3 -0.5
v -0.1 0.3 -0.5
v -0.6 0.4 1.1
v -0.5 0.4 1.1
v -5.96046e-008 0.4 1.1
v 0.1 0.4 1.1
v -0.5 0.4 1
v -5.96046e-008 0.4 1
v -0.5 0.4 0.9
v -5.96046e-008 0.4 0.9
v -0.5 0.4 0.7
v -5.96046e-008 0.4 0.7
v -0.5 0.4 0.6
v -5.96046e-008 0.4 0.6
v -0.5 0.4 0.3
v -5.96046e-008 0.4 0.3
v -0.5 0.4 0.2
v -5.96046e-008 0.4 0.2
v -0.5 0.4 -0.1
v -5.96046e-008 0.4 -0.1
v -0.5 0.4 -0.2
v -5.96046e-008 0.4 -0.2
v -0.5 0.4 -0.4
v -5.96046e-008 0.4 -0.4
v -0.5 0.4 -0.5
v -5.96046e-008 0.4 -0.5
v -0.6 0.4 -0.6
v -0.5 0.4 -0.6
v -5.96046e-008 0.4 -0.6
v 0.1 0.4 -0.6
v -0.5 0.4 1
v -0.3 0.4 1
v -0.2 0.4 1
v -5.96046e-008 0.4 1
v -0.5 0.4 0.9
v -0.3 0.4 0.9
v -0.2 0.4 0.9
v -5.96046e-008 0.4 0.9
v -0.4 0.4 0.8
v -0.3 0.4 0.8
v -0.2 0.4 0.8
v -0.1 0.4 0.8
v -0.5 0.4 0.7
v -0.4 0.4 0.7
v -0.3 0.4 0.7
v -0.2 0.4 0.7
v -0.1 0.4 0.7
v -5.96046e-008 0.4 0.7
v -0.5 0.4 0.6
v -0.4 0.4 0.6
v -0.3 0.4 0.6
v -0.2 0.4 0.6
v -0.1 0.4 0.6
v -5.96046e-008 0.4 0.6
v -0.3 0.4 0.5
v -0.2 0.4 0.5
v -0.4 0.4 0.4
v -0.3 0.4 0.4
v -0.2 0.4 0.4
v -0.1 0.4 0.4
v -0.5 0.4 0.3
v -0.4 0.4 0.3
v -0.3 0.4 0.3
v -0.2 0.4 0.3
v -0.1 0.4 0.3
v -5.96046e-008 0.4 0.3
v -0.5 0.4 0.2
v -0.4 0.4 0.2
v -0.3 0.4 0.2
v -0.2 0.4 0.2
v -0.1 0.4 0.2
v -5.96046e-008 0.4 0.2
v -0.4 0.4 0.0999999
v -0.3 0.4 0.0999999
v -0.2 0.4 0.0999999
v -0.1 0.4 0.0999999
v -0.3 0.4 -1.19209e-007
v -0.2 0.4 -1.19209e-007
v -0.5 0.4 -0.1
v -0.4 0.4 -0.1
v -0.3 0.4 -0.1
v -0.2 0.4 -0.1
v -0.1 0.4 -0.1
v -5.96046e-008 0.4 -0.1
v -0.5 0.4 -0.2
v -0.4 0.4 -0.2
v -0.3 0.4 -0.2
v -0.2 0.4 -0.2
v -0.1 0.4 -0.2
v -5.96046e-008 0.4 -0.2
v -0.4 0.4 -0.3
v -0.3 0.4 -0.3
v -0.2 0.4 -0.3
v -0.1 0.4 -0.3
v -0.5 0.4 -0.4
v -0.3 0.4 -0.4
v -0.2 0.4 -0.4
v -5.96046e-008 0.4 -0.4
v -0.5 0.4 -0.5
v -0.3 0.4 -0.5
v -0.2 0.4 -0.5
v -5.96046e-008 0.4 -0.5
v -0.6 0.5 1
v -0.5 0.5 1
v -5.96046e-008 0.5 1
v 0.1 0.5 1
v -0.6 0.5 -0.5
v -0.5 0.5 -0.5
v -5.96046e-008 0.5 -0.5
v 0.1 0.5 -0.5
v -0.6 0.6 1.1
v -0.5 0.6 1.1
v -5.96046e-008 0.6 1.1
v 0.1 0.6 1.1
v -0.6 0.6 1
v -0.5 0.6 1
v -5.96046e-008 0.6 1
v 0.1 0.6 1
v -0.6 0.6 -0.5
v -0.5 0.6 -0.5
v -5.96046e-008 0.6 -0.5
v 0.1 0.6 -0.5
v -0.6 0.6 -0.6
v -0.5 0.6 -0.6
v -5.96046e-008 0.6 -0.6
v 0.1 0.6 -0.6

# faces
f 3/2/1 2/2/1 1/2/1
f 4/2/1 2/2/1 3/2/1
f 5/2/1 2/2/1 4/2/1
f 6/2/1 2/2/1 5/2/1
f 7/1/1 4/1/1 3/1/1
f 8/1/1 4/1/1 7/1/1
f 9/1/1 6/1/1 5/1/1
f 10/1/1 6/1/1 9/1/1
f 15/2/1 12/2/1 11/2/1
f 16/2/1 12/2/1 15/2/1
f 19/2/1 14/2/1 13/2/1
f 20/2/1 14/2/1 19/2/1
f 21/2/1 17/2/1 16/2/1
f 21/1/1 16/1/1 15/1/1
f 22/2/1 17/2/1 21/2/1
f 25/2/1 19/2/1 18/2/1
f 26/1/1 20/1/1 19/1/1
f 26/2/1 19/2/1 25/2/1
f 27/1/1 21/1/1 15/1/1
f 27/1/1 22/1/1 21/1/1
f 28/1/1 22/1/1 27/1/1
f 29/2/1 23/2/1 22/2/1
f 29/1/1 22/1/1 28/1/1
f 30/2/1 23/2/1 29/2/1
f 35/2/1 25/2/1 24/2/1
f 36/1/1 26/1/1 25/1/1
f 36/2/1 25/2/1 35/2/1
f 37/1/1 20/1/1 26/1/1
f 37/1/1 26/1/1 36/1/1
f 38/1/1 20/1/1 37/1/1
f 39/2/1 28/2/1 27/2/1
f 40/1/1 29/1/1 28/1/1
f 40/2/1 28/2/1 39/2/1
f 40/1/1 30/1/1 29/1/1
f 41/2/1 31/2/1 30/2/1
f 41/1/1 30/1/1 40/1/1
f 42/1/1 32/1/1 31/1/1
f 42/2/1 31/2/1 41/2/1
f 43/2/1 33/2/1 32/2/1
f 43/1/1 32/1/1 42/1/1
f 44/1/1 34/1/1 33/1/1
f 44/2/1 33/2/1 43/2/1
f 45/2/1 35/2/1 34/2/1
f 45/1/1 34/1/1 44/1/1
f 46/1/1 36/1/1 35/1/1
f 46/2/1 35/2/1 45/2/1
f 46/1/1 37/1/1 36/1/1
f 47/2/1 38/2/1 37/2/1
f 47/1/1 37/1/1 46/1/1
f 48/2/1 38/2/1 47/2/1
f 53/2/1 50/2/1 49/2/1
f 54/2/1 50/2/1 53/2/1
f 57/2/1 52/2/1 51/2/1
f 58/2/1 52/2/1 57/2/1
f 59/2/1 55/2/1 54/2/1
f 59/1/1 54/1/1 53/1/1
f 60/2/1 55/2/1 59/2/1
f 63/2/1 57/2/1 56/2/1
f 64/1/1 58/1/1 57/1/1
f 64/2/1 57/2/1 63/2/1
f 65/1/1 59/1/1 53/1/1
f 65/1/1 60/1/1 59/1/1
f 66/1/1 60/1/1 65/1/1
f 67/2/1 61/2/1 60/2/1
f 67/1/1 60/1/1 66/1/1
f 68/2/1 61/2/1 67/2/1
f 69/2/1 63/2/1 62/2/1
f 70/1/1 64/1/1 63/1/1
f 70/2/1 63/2/1 69/2/1
f 71/1/1 58/1/1 64/1/1
f 71/1/1 64/1/1 70/1/1
f 72/1/1 58/1/1 71/1/1
f 85/2/1 74/2/1 73/2/1
f 85/2/1 84/2/1 83/2/1
f 85/2/1 83/2/1 82/2/1
f 85/2/1 82/2/1 81/2/1
f 85/2/1 81/2/1 80/2/1
f 85/2/1 80/2/1 79/2/1
f 85/2/1 79/2/1 78/2/1
f 85/2/1 78/2/1 77/2/1
f 85/2/1 77/2/1 76/2/1
f 85/2/1 76/2/1 75/2/1
f 85/2/1 75/2/1 74/2/1
f 86/2/1 84/2/1 85/2/1
f 87/2/1 84/2/1 86/2/1
f 88/2/1 84/2/1 87/2/1
f 89/1/1 86/1/1 85/1/1
f 90/1/1 86/1/1 89/1/1
f 91/1/1 88/1/1 87/1/1
f 92/1/1 88/1/1 91/1/1
f 93/2/2 94/2/2 105/2/2
f 103/2/2 104/2/2 105/2/2
f 102/2/2 103/2/2 105/2/2
f 101/2/2 102/2/2 105/2/2
f 100/2/2 101/2/2 105/2/2
f 99/2/2 100/2/2 105/2/2
f 98/2/2 99/2/2 105/2/2
f 97/2/2 98/2/2 105/2/2
f 96/2/2 97/2/2 105/2/2
f 95/2/2 96/2/2 105/2/2
f 94/2/2 95/2/2 105/2/2
f 105/2/2 104/2/2 106/2/2
f 106/2/2 104/2/2 107/2/2
f 107/2/2 104/2/2 108/2/2
f 105/1/2 106/1/2 109/1/2
f 109/1/2 106/1/2 110/1/2
f 107/1/2 108/1/2 111/1/2
f 111/1/2 108/1/2 112/1/2
f 113/2/2 114/2/2 117/2/2
f 117/2/2 114/2/2 118/2/2
f 115/2/2 116/2/2 121/2/2
f 121/2/2 116/2/2 122/2/2
f 118/2/2 119/2/2 123/2/2
f 117/1/2 118/1/2 123/1/2
f 123/2/2 119/2/2 124/2/2
f 120/2/2 121/2/2 127/2/2
f 121/1/2 122/1/2 128/1/2
f 127/2/2 121/2/2 128/2/2
f 117/1/2 123/1/2 129/1/2
f 123/1/2 124/1/2 129/1/2
f 129/1/2 124/1/2 130/1/2
f 124/2/2 125/2/2 131/2/2
f 130/1/2 124/1/2 131/1/2
f 131/2/2 125/2/2 132/2/2
f 126/2/2 127/2/2 133/2/2
f 127/1/2 128/1/2 134/1/2
f 133/2/2 127/2/2 134/2/2
f 128/1/2 122/1/2 135/1/2
f 134/1/2 128/1/2 135/1/2
f 135/1/2 122/1/2 136/1/2
f 137/2/2 138/2/2 141/2/2
f 141/2/2 138/2/2 142/2/2
f 139/2/2 140/2/2 145/2/2
f 145/2/2 140/2/2 146/2/2
f 142/2/2 143/2/2 147/2/2
f 141/1/2 142/1/2 147/1/2
f 147/2/2 143/2/2 148/2/2
f 144/2/2 145/2/2 151/2/2
f 145/1/2 146/1/2 152/1/2
f 151/2/2 145/2/2 152/2/2
f 141/1/2 147/1/2 153/1/2
f 147/1/2 148/1/2 153/1/2
f 153/1/2 148/1/2 154/1/2
f 148/2/2 149/2/2 155/2/2
f 154/1/2 148/1/2 155/1/2
f 155/2/2 149/2/2 156/2/2
f 150/2/2 151/2/2 161/2/2
f 151/1/2 152/1/2 162/1/2
f 161/2/2 151/2/2 162/2/2
f 152/1/2 146/1/2 163/1/2
f 162/1/2 152/1/2 163/1/2
f 163/1/2 146/1/2 164/1/2
f 153/2/2 154/2/2 165/2/2
f 154/1/2 155/1/2 166/1/2
f 165/2/2 154/2/2 166/2/2
f 155/1/2 156/1/2 166/1/2
f 156/2/2 157/2/2 167/2/2
f 166/1/2 156/1/2 167/1/2
f 157/1/2 158/1/2 168/1/2
f 167/2/2 157/2/2 168/2/2
f 158/2/2 159/2/2 169/2/2
f 168/1/2 158/1/2 169/1/2
f 159/1/2 160/1/2 170/1/2
f 169/2/2 159/2/2 170/2/2
f 160/2/2 161/2/2 171/2/2
f 170/1/2 160/1/2 171/1/2
f 161/1/2 162/1/2 172/1/2
f 171/2/2 161/2/2 172/2/2
f 162/1/2 163/1/2 172/1/2
f 163/2/2 164/2/2 173/2/2
f 172/1/2 163/1/2 173/1/2
f 173/2/2 164/2/2 174/2/2
f 175/2/2 176/2/2 177/2/2
f 177/2/2 176/2/2 178/2/2
f 178/2/2 176/2/2 179/2/2
f 179/2/2 176/2/2 180/2/2
f 177/1/2 178/1/2 181/1/2
f 181/1/2 178/1/2 182/1/2
f 179/1/2 180/1/2 183/1/2
f 183/1/2 180/1/2 184/1/2
f 188/2/3 186/2/3 185/2/3
f 189/1/3 187/1/3 186/1/3
f 189/2/3 186/2/3 188/2/3
f 190/1/3 187/1/3 189/1/3
f 194/2/3 192/2/3 191/2/3
f 195/1/3 193/1/3 192/1/3
f 195/2/3 192/2/3 194/2/3
f 196/1/3 193/1/3 195/1/3
f 201/2/3 198/2/3 197/2/3
f 202/1/3 199/1/3 198/1/3
f 202/2/3 198/2/3 201/2/3
f 203/2/3 200/2/3 199/2/3
f 203/1/3 199/1/3 202/1/3
f 204/2/3 200/2/3 203/2/3
f 205/2/3 200/2/3 204/2/3
f 206/1/3 205/1/3 204/1/3
f 207/1/3 205/1/3 206/1/3
f 210/2/3 207/2/3 206/2/3
f 211/2/3 209/2/3 208/2/3
f 212/1/3 210/1/3 209/1/3
f 212/2/3 209/2/3 211/2/3
f 213/2/3 207/2/3 210/2/3
f 213/1/3 210/1/3 212/1/3
f 214/2/3 207/2/3 213/2/3
f 217/2/3 216/2/3 215/2/3
f 218/2/3 216/2/3 217/2/3
f 221/2/3 220/2/3 219/2/3
f 222/2/3 220/2/3 221/2/3
f 225/2/3 224/2/3 223/2/3
f 226/2/3 224/2/3 225/2/3
f 229/2/3 228/2/3 227/2/3
f 230/2/3 228/2/3 229/2/3
f 233/2/3 232/2/3 231/2/3
f 234/2/3 232/2/3 233/2/3
f 237/2/3 236/2/3 235/2/3
f 238/2/3 236/2/3 237/2/3
f 241/1/3 240/1/3 239/1/3
f 242/1/3 240/1/3 241/1/3
f 245/1/3 244/1/3 243/1/3
f 246/1/3 244/1/3 245/1/3
f 247/1/4 248/1/4 249/1/4
f 249/1/4 248/1/4 250/1/4
f 251/1/4 252/1/4 253/1/4
f 253/1/4 252/1/4 254/1/4
f 255/2/4 256/2/4 257/2/4
f 257/2/4 256/2/4 258/2/4
f 259/2/4 260/2/4 261/2/4
f 261/2/4 260/2/4 262/2/4
f 263/2/4 264/2/4 265/2/4
f 265/2/4 264/2/4 266/2/4
f 267/2/4 268/2/4 269/2/4
f 269/2/4 268/2/4 270/2/4
f 271/2/4 272/2/4 273/2/4
f 273/2/4 272/2/4 274/2/4
f 275/2/4 276/2/4 277/2/4
f 277/2/4 276/2/4 278/2/4
f 279/2/4 280/2/4 283/2/4
f 280/1/4 281/1/4 284/1/4
f 283/2/4 280/2/4 284/2/4
f 281/2/4 282/2/4 285/2/4
f 284/1/4 281/1/4 285/1/4
f 285/2/4 282/2/4 286/2/4
f 286/2/4 282/2/4 287/2/4
f 286/1/4 287/1/4 288/1/4
f 288/1/4 287/1/4 289/1/4
f 288/2/4 289/2/4 292/2/4
f 290/2/4 291/2/4 293/2/4
f 291/1/4 292/1/4 294/1/4
f 293/2/4 291/2/4 294/2/4
f 292/2/4 289/2/4 295/2/4
f 294/1/4 292/1/4 295/1/4
f 295/2/4 289/2/4 296/2/4
f 297/2/4 298/2/4 300/2/4
f 298/1/4 299/1/4 301/1/4
f 300/2/4 298/2/4 301/2/4
f 301/1/4 299/1/4 302/1/4
f 303/2/4 304/2/4 306/2/4
f 304/1/4 305/1/4 307/1/4
f 306/2/4 304/2/4 307/2/4
f 307/1/4 305/1/4 308/1/4
f 313/2/5 310/2/5 309/2/5
f 314/2/5 310/2/5 313/2/5
f 315/2/5 312/2/5 311/2/5
f 316/2/5 312/2/5 315/2/5
f 321/2/5 318/2/5 317/2/5
f 322/2/5 318/2/5 321/2/5
f 323/2/5 320/2/5 319/2/5
f 324/2/5 320/2/5 323/2/5
f 329/2/5 326/2/5 325/2/5
f 330/2/5 326/2/5 329/2/5
f 331/2/5 328/2/5 327/2/5
f 332/2/5 328/2/5 331/2/5
f 337/2/5 334/2/5 333/2/5
f 338/2/5 334/2/5 337/2/5
f 339/2/5 336/2/5 335/2/5
f 340/2/5 336/2/5 339/2/5
f 345/2/5 342/2/5 341/2/5
f 346/2/5 342/2/5 345/2/5
f 347/2/5 344/2/5 343/2/5
f 348/2/5 344/2/5 347/2/5
f 353/2/5 350/2/5 349/2/5
f 354/2/5 350/2/5 353/2/5
f 355/2/5 352/2/5 351/2/5
f 356/2/5 352/2/5 355/2/5
f 361/2/5 358/2/5 357/2/5
f 362/1/5 359/1/5 358/1/5
f 362/2/5 358/2/5 361/2/5
f 363/2/5 360/2/5 359/2/5
f 363/1/5 359/1/5 362/1/5
f 364/2/5 360/2/5 363/2/5
f 365/1/5 362/1/5 361/1/5
f 366/2/5 363/2/5 362/2/5
f 366/1/5 362/1/5 365/1/5
f 367/1/5 364/1/5 363/1/5
f 367/2/5 363/2/5 366/2/5
f 368/1/5 364/1/5 367/1/5
f 370/2/5 366/2/5 365/2/5
f 371/1/5 367/1/5 366/1/5
f 371/2/5 366/2/5 370/2/5
f 372/2/5 368/2/5 367/2/5
f 372/1/5 367/1/5 371/1/5
f 373/2/5 368/2/5 372/2/5
f 375/2/5 370/2/5 369/2/5
f 376/1/5 371/1/5 370/1/5
f 376/2/5 370/2/5 375/2/5
f 377/2/5 372/2/5 371/2/5
f 377/1/5 371/1/5 376/1/5
f 378/1/5 373/1/5 372/1/5
f 378/2/5 372/2/5 377/2/5
f 379/2/5 374/2/5 373/2/5
f 379/1/5 373/1/5 378/1/5
f 380/2/5 374/2/5 379/2/5
f 381/1/5 377/1/5 376/1/5
f 381/1/5 376/1/5 375/1/5
f 381/1/5 380/1/5 379/1/5
f 381/1/5 379/1/5 378/1/5
f 381/1/5 378/1/5 377/1/5
f 382/1/5 380/1/5 381/1/5
f 383/1/5 381/1/5 375/1/5
f 384/2/5 382/2/5 381/2/5
f 384/1/5 381/1/5 383/1/5
f 385/1/5 380/1/5 382/1/5
f 385/2/5 382/2/5 384/2/5
f 386/1/5 380/1/5 385/1/5
f 387/1/5 383/1/5 375/1/5
f 388/2/5 384/2/5 383/2/5
f 388/1/5 383/1/5 387/1/5
f 389/1/5 385/1/5 384/1/5
f 389/2/5 384/2/5 388/2/5
f 390/2/5 386/2/5 385/2/5
f 390/1/5 385/1/5 389/1/5
f 391/1/5 380/1/5 386/1/5
f 391/2/5 386/2/5 390/2/5
f 392/1/5 380/1/5 391/1/5
f 393/2/5 388/2/5 387/2/5
f 394/1/5 390/1/5 389/1/5
f 394/2/5 388/2/5 393/2/5
f 394/1/5 389/1/5 388/1/5
f 394/1/5 391/1/5 390/1/5
f 395/1/5 391/1/5 394/1/5
f 396/1/5 391/1/5 395/1/5
f 397/2/5 392/2/5 391/2/5
f 397/1/5 391/1/5 396/1/5
f 398/2/5 392/2/5 397/2/5
f 399/1/5 394/1/5 393/1/5
f 399/2/5 395/2/5 394/2/5
f 400/1/5 396/1/5 395/1/5
f 400/2/5 395/2/5 399/2/5
f 401/2/5 397/2/5 396/2/5
f 401/1/5 396/1/5 400/1/5
f 402/1/5 398/1/5 397/1/5
f 402/2/5 397/2/5 401/2/5
f 403/2/5 401/2/5 400/2/5
f 403/1/5 400/1/5 399/1/5
f 404/1/5 402/1/5 401/1/5
f 404/2/5 401/2/5 403/2/5
f 405/1/5 399/1/5 393/1/5
f 405/1/5 403/1/5 399/1/5
f 405/1/5 404/1/5 403/1/5
f 406/1/5 404/1/5 405/1/5
f 407/1/5 404/1/5 406/1/5
f 408/1/5 402/1/5 404/1/5
f 408/1/5 404/1/5 407/1/5
f 409/1/5 398/1/5 402/1/5
f 409/1/5 402/1/5 408/1/5
f 410/1/5 398/1/5 409/1/5
f 411/2/5 406/2/5 405/2/5
f 412/1/5 407/1/5 406/1/5
f 412/2/5 406/2/5 411/2/5
f 413/2/5 408/2/5 407/2/5
f 413/1/5 407/1/5 412/1/5
f 414/1/5 409/1/5 408/1/5
f 414/2/5 408/2/5 413/2/5
f 415/2/5 410/2/5 409/2/5
f 415/1/5 409/1/5 414/1/5
f 416/2/5 410/2/5 415/2/5
f 417/2/5 413/2/5 412/2/5
f 418/1/5 414/1/5 413/1/5
f 418/2/5 413/2/5 417/2/5
f 419/2/5 415/2/5 414/2/5
f 419/1/5 414/1/5 418/1/5
f 420/2/5 415/2/5 419/2/5
f 421/1/5 418/1/5 417/1/5
f 422/2/5 419/2/5 418/2/5
f 422/1/5 418/1/5 421/1/5
f 423/1/5 420/1/5 419/1/5
f 423/2/5 419/2/5 422/2/5
f 424/1/5 420/1/5 423/1/5
f 425/2/5 422/2/5 421/2/5
f 426/1/5 423/1/5 422/1/5
f 426/2/5 422/2/5 425/2/5
f 427/2/5 424/2/5 423/2/5
f 427/1/5 423/1/5 426/1/5
f 428/2/5 424/2/5 427/2/5
f 433/2/5 430/2/5 429/2/5
f 434/2/5 432/2/5 431/2/5
f 435/2/5 433/2/5 429/2/5
f 436/2/5 432/2/5 434/2/5
f 437/2/5 435/2/5 429/2/5
f 438/2/5 432/2/5 436/2/5
f 439/2/5 437/2/5 429/2/5
f 440/2/5 432/2/5 438/2/5
f 441/2/5 439/2/5 429/2/5
f 442/2/5 432/2/5 440/2/5
f 443/2/5 441/2/5 429/2/5
f 444/2/5 432/2/5 442/2/5
f 445/2/5 443/2/5 429/2/5
f 446/2/5 432/2/5 444/2/5
f 447/2/5 445/2/5 429/2/5
f 448/2/5 432/2/5 446/2/5
f 449/2/5 447/2/5 429/2/5
f 450/2/5 432/2/5 448/2/5
f 451/2/5 449/2/5 429/2/5
f 452/2/5 432/2/5 450/2/5
f 453/2/5 451/2/5 429/2/5
f 454/2/5 451/2/5 453/2/5
f 455/2/5 432/2/5 452/2/5
f 456/2/5 432/2/5 455/2/5
f 457/2/6 458/2/6 461/2/6
f 458/1/6 459/1/6 462/1/6
f 461/2/6 458/2/6 462/2/6
f 459/2/6 460/2/6 463/2/6
f 462/1/6 459/1/6 463/1/6
f 463/2/6 460/2/6 464/2/6
f 461/1/6 462/1/6 465/1/6
f 462/2/6 463/2/6 466/2/6
f 465/1/6 462/1/6 466/1/6
f 463/1/6 464/1/6 467/1/6
f 466/2/6 463/2/6 467/2/6
f 467/1/6 464/1/6 468/1/6
f 461/1/6 465/1/6 469/1/6
f 465/2/6 466/2/6 470/2/6
f 469/1/6 465/1/6 470/1/6
f 466/1/6 467/1/6 471/1/6
f 470/2/6 466/2/6 471/2/6
f 467/2/6 468/2/6 472/2/6
f 471/1/6 467/1/6 472/1/6
f 468/1/6 464/1/6 473/1/6
f 472/2/6 468/2/6 473/2/6
f 473/1/6 464/1/6 474/1/6
f 469/2/6 470/2/6 475/2/6
f 470/1/6 471/1/6 476/1/6
f 475/2/6 470/2/6 476/2/6
f 471/2/6 472/2/6 477/2/6
f 476/1/6 471/1/6 477/1/6
f 472/1/6 473/1/6 478/1/6
f 477/2/6 472/2/6 478/2/6
f 473/2/6 474/2/6 479/2/6
f 478/1/6 473/1/6 479/1/6
f 479/2/6 474/2/6 480/2/6
f 475/1/6 476/1/6 481/1/6
f 476/1/6 477/1/6 481/1/6
f 479/1/6 480/1/6 481/1/6
f 478/1/6 479/1/6 481/1/6
f 477/1/6 478/1/6 481/1/6
f 481/1/6 480/1/6 482/1/6
f 475/1/6 481/1/6 483/1/6
f 481/2/6 482/2/6 484/2/6
f 483/1/6 481/1/6 484/1/6
f 482/1/6 480/1/6 485/1/6
f 484/2/6 482/2/6 485/2/6
f 485/1/6 480/1/6 486/1/6
f 475/1/6 483/1/6 487/1/6
f 483/2/6 484/2/6 488/2/6
f 487/1/6 483/1/6 488/1/6
f 484/1/6 485/1/6 489/1/6
f 488/2/6 484/2/6 489/2/6
f 485/2/6 486/2/6 490/2/6
f 489/1/6 485/1/6 490/1/6
f 486/1/6 480/1/6 491/1/6
f 490/2/6 486/2/6 491/2/6
f 491/1/6 480/1/6 492/1/6
f 487/2/6 488/2/6 493/2/6
f 489/1/6 490/1/6 494/1/6
f 493/2/6 488/2/6 494/2/6
f 488/1/6 489/1/6 494/1/6
f 490/1/6 491/1/6 494/1/6
f 494/1/6 491/1/6 495/1/6
f 495/1/6 491/1/6 496/1/6
f 491/2/6 492/2/6 497/2/6
f 496/1/6 491/1/6 497/1/6
f 497/2/6 492/2/6 498/2/6
f 493/1/6 494/1/6 499/1/6
f 494/2/6 495/2/6 499/2/6
f 495/1/6 496/1/6 500/1/6
f 499/2/6 495/2/6 500/2/6
f 496/2/6 497/2/6 501/2/6
f 500/1/6 496/1/6 501/1/6
f 497/1/6 498/1/6 502/1/6
f 501/2/6 497/2/6 502/2/6
f 500/2/6 501/2/6 503/2/6
f 499/1/6 500/1/6 503/1/6
f 501/1/6 502/1/6 504/1/6
f 503/2/6 501/2/6 504/2/6
f 493/1/6 499/1/6 505/1/6
f 499/1/6 503/1/6 505/1/6
f 503/1/6 504/1/6 505/1/6
f 505/1/6 504/1/6 506/1/6
f 506/1/6 504/1/6 507/1/6
f 504/1/6 502/1/6 508/1/6
f 507/1/6 504/1/6 508/1/6
f 502/1/6 498/1/6 509/1/6
f 508/1/6 502/1/6 509/1/6
f 509/1/6 498/1/6 510/1/6
f 505/2/6 506/2/6 511/2/6
f 506/1/6 507/1/6 512/1/6
f 511/2/6 506/2/6 512/2/6
f 507/2/6 508/2/6 513/2/6
f 512/1/6 507/1/6 513/1/6
f 508/1/6 509/1/6 514/1/6
f 513/2/6 508/2/6 514/2/6
f 509/2/6 510/2/6 515/2/6
f 514/1/6 509/1/6 515/1/6
f 515/2/6 510/2/6 516/2/6
f 511/1/6 512/1/6 517/1/6
f 512/2/6 513/2/6 517/2/6
f 513/1/6 514/1/6 518/1/6
f 517/2/6 513/2/6 518/2/6
f 514/2/6 515/2/6 519/2/6
f 518/1/6 514/1/6 519/1/6
f 515/1/6 516/1/6 520/1/6
f 519/2/6 515/2/6 520/2/6
f 511/1/6 517/1/6 521/1/6
f 517/1/6 518/1/6 521/1/6
f 518/2/6 519/2/6 522/2/6
f 521/1/6 518/1/6 522/1/6
f 519/1/6 520/1/6 523/1/6
f 522/2/6 519/2/6 523/2/6
f 520/1/6 516/1/6 524/1/6
f 523/1/6 520/1/6 524/1/6
f 521/2/6 522/2/6 525/2/6
f 522/1/6 523/1/6 526/1/6
f 525/2/6 522/2/6 526/2/6
f 523/2/6 524/2/6 527/2/6
f 526/1/6 523/1/6 527/1/6
f 527/2/6 524/2/6 528/2/6
f 529/2/6 530/2/6 533/2/6
f 533/2/6 530/2/6 534/2/6
f 531/2/6 532/2/6 535/2/6
f 535/2/6 532/2/6 536/2/6
f 537/1/6 538/1/6 541/1/6
f 541/1/6 538/1/6 542/1/6
f 539/1/6 540/1/6 543/1/6
f 543/1/6 540/1/6 544/1/6
f 545/1/6 546/1/6 549/1/6
f 549/1/6 546/1/6 550/1/6
f 547/1/6 548/1/6 551/1/6
f 551/1/6 548/1/6 552/1/6
