# MagicaVoxel @ Ephtracy

# group
o 

# material
mtllib bridge_4.mtl
usemtl palette

# normals
vn -1 0 0
vn 1 0 0
vn 0 0 1
vn 0 0 -1
vn 0 -1 0
vn 0 1 0

# texcoords
vt 0.658203 0.5
vt 0.662109 0.5
vt 0.970703 0.5
vt 0.974609 0.5

# verts
v -0.4 0 0.3
v -0.4 0 0.1
v -0.4 0 -0.8
v -0.4 0 -1
v -0.4 0.1 0.3
v -0.4 0.1 0.1
v -0.4 0.1 -0.8
v -0.4 0.1 -1
v -0.4 0.2 0.6
v -0.4 0.2 0.4
v -0.4 0.2 0.3
v -0.4 0.2 0.1
v -0.4 0.2 -0.8
v -0.4 0.2 -1
v -0.4 0.2 -1.1
v -0.4 0.2 -1.3
v -0.4 0.3 0.6
v -0.4 0.3 0.4
v -0.4 0.3 0.3
v -0.4 0.3 0.1
v -0.4 0.3 -0.8
v -0.4 0.3 -1
v -0.4 0.3 -1.1
v -0.4 0.3 -1.3
v -0.3 0 0.4
v -0.3 0 0.3
v -0.3 0 -1
v -0.3 0 -1.1
v -0.3 0.1 0.3
v -0.3 0.1 0.1
v -0.3 0.1 5.96046e-008
v -0.3 0.1 -0.7
v -0.3 0.1 -0.8
v -0.3 0.1 -1
v -0.3 0.2 0.4
v -0.3 0.2 0.3
v -0.3 0.2 0.1
v -0.3 0.2 5.96046e-008
v -0.3 0.2 -0.7
v -0.3 0.2 -0.8
v -0.3 0.2 -1
v -0.3 0.2 -1.1
v -0.3 0.3 0.5
v -0.3 0.3 0.4
v -0.3 0.3 0.3
v -0.3 0.3 0.2
v -0.3 0.3 -0.9
v -0.3 0.3 -1
v -0.3 0.3 -1.1
v -0.3 0.3 -1.2
v -0.3 0.4 0.5
v -0.3 0.4 0.4
v -0.3 0.4 0.3
v -0.3 0.4 0.2
v -0.3 0.4 -0.9
v -0.3 0.4 -1
v -0.3 0.4 -1.1
v -0.3 0.4 -1.2
v -0.3 0.5 0.4
v -0.3 0.5 0.3
v -0.3 0.5 -1
v -0.3 0.5 -1.1
v -0.2 0.1 5.96046e-008
v -0.2 0.1 -0.1
v -0.2 0.1 -0.6
v -0.2 0.1 -0.7
v -0.2 0.2 5.96046e-008
v -0.2 0.2 -0.1
v -0.2 0.2 -0.6
v -0.2 0.2 -0.7
v 0 0 0.4
v 0 0 0.2
v 0 0.1 0.4
v 0 0.1 0.2
v 0.1 0 0.2
v 0.1 0 0.1
v 0.1 0 -0.8
v 0.1 0 -1
v 0.1 0 -1.1
v 0.1 0.1 0.2
v 0.1 0.1 0.1
v 0.1 0.1 -0.8
v 0.1 0.1 -1
v 0.1 0.1 -1.1
v 0.1 0.2 0.6
v 0.1 0.2 0.4
v 0.1 0.2 0.3
v 0.1 0.2 0.1
v 0.1 0.2 -0.8
v 0.1 0.2 -1
v 0.1 0.2 -1.1
v 0.1 0.2 -1.3
v 0.1 0.3 0.6
v 0.1 0.3 0.5
v 0.1 0.3 0.4
v 0.1 0.3 0.3
v 0.1 0.3 0.2
v 0.1 0.3 0.1
v 0.1 0.3 -0.8
v 0.1 0.3 -0.9
v 0.1 0.3 -1
v 0.1 0.3 -1.1
v 0.1 0.3 -1.2
v 0.1 0.3 -1.3
v 0.1 0.4 0.5
v 0.1 0.4 0.4
v 0.1 0.4 0.3
v 0.1 0.4 0.2
v 0.1 0.4 -0.9
v 0.1 0.4 -1
v 0.1 0.4 -1.1
v 0.1 0.4 -1.2
v 0.1 0.5 0.4
v 0.1 0.5 0.3
v 0.1 0.5 -1
v 0.1 0.5 -1.1
v -0.2 0 0.4
v -0.2 0 0.3
v -0.2 0 0.1
v -0.2 0 -0.8
v -0.2 0 -1
v -0.2 0 -1.1
v -0.2 0.1 0.4
v -0.2 0.1 0.3
v -0.2 0.1 0.1
v -0.2 0.1 -0.8
v -0.2 0.1 -1
v -0.2 0.1 -1.1
v -0.2 0.2 0.6
v -0.2 0.2 0.4
v -0.2 0.2 0.3
v -0.2 0.2 0.1
v -0.2 0.2 -0.8
v -0.2 0.2 -1
v -0.2 0.2 -1.1
v -0.2 0.2 -1.3
v -0.2 0.3 0.6
v -0.2 0.3 0.5
v -0.2 0.3 0.4
v -0.2 0.3 0.3
v -0.2 0.3 0.2
v -0.2 0.3 0.1
v -0.2 0.3 -0.8
v -0.2 0.3 -0.9
v -0.2 0.3 -1
v -0.2 0.3 -1.1
v -0.2 0.3 -1.2
v -0.2 0.3 -1.3
v -0.2 0.4 0.5
v -0.2 0.4 0.4
v -0.2 0.4 0.3
v -0.2 0.4 0.2
v -0.2 0.4 -0.9
v -0.2 0.4 -1
v -0.2 0.4 -1.1
v -0.2 0.4 -1.2
v -0.2 0.5 0.4
v -0.2 0.5 0.3
v -0.2 0.5 -1
v -0.2 0.5 -1.1
v 0.1 0 0.4
v 0.1 0 0.3
v 0.1 0.1 0.4
v 0.1 0.1 0.3
v 0.1 0.1 5.96046e-008
v 0.1 0.1 -0.1
v 0.1 0.1 -0.6
v 0.1 0.1 -0.7
v 0.1 0.2 5.96046e-008
v 0.1 0.2 -0.1
v 0.1 0.2 -0.6
v 0.1 0.2 -0.7
v 0.2 0 -1
v 0.2 0 -1.1
v 0.2 0.1 0.4
v 0.2 0.1 0.3
v 0.2 0.1 0.1
v 0.2 0.1 5.96046e-008
v 0.2 0.1 -0.7
v 0.2 0.1 -0.8
v 0.2 0.1 -1
v 0.2 0.2 0.4
v 0.2 0.2 0.3
v 0.2 0.2 0.1
v 0.2 0.2 5.96046e-008
v 0.2 0.2 -0.7
v 0.2 0.2 -0.8
v 0.2 0.2 -1
v 0.2 0.2 -1.1
v 0.2 0.3 0.5
v 0.2 0.3 0.4
v 0.2 0.3 0.3
v 0.2 0.3 0.2
v 0.2 0.3 -0.9
v 0.2 0.3 -1
v 0.2 0.3 -1.1
v 0.2 0.3 -1.2
v 0.2 0.4 0.5
v 0.2 0.4 0.4
v 0.2 0.4 0.3
v 0.2 0.4 0.2
v 0.2 0.4 -0.9
v 0.2 0.4 -1
v 0.2 0.4 -1.1
v 0.2 0.4 -1.2
v 0.2 0.5 0.4
v 0.2 0.5 0.3
v 0.2 0.5 -1
v 0.2 0.5 -1.1
v 0.3 0 0.3
v 0.3 0 0.1
v 0.3 0 -0.8
v 0.3 0 -1
v 0.3 0.1 0.3
v 0.3 0.1 0.1
v 0.3 0.1 -0.8
v 0.3 0.1 -1
v 0.3 0.2 0.6
v 0.3 0.2 0.4
v 0.3 0.2 0.3
v 0.3 0.2 0.1
v 0.3 0.2 -0.8
v 0.3 0.2 -1
v 0.3 0.2 -1.1
v 0.3 0.2 -1.3
v 0.3 0.3 0.6
v 0.3 0.3 0.4
v 0.3 0.3 0.3
v 0.3 0.3 0.1
v 0.3 0.3 -0.8
v 0.3 0.3 -1
v 0.3 0.3 -1.1
v 0.3 0.3 -1.3
v -0.4 0.2 0.6
v -0.4 0.3 0.6
v -0.2 0.2 0.6
v -0.2 0.3 0.6
v 0.1 0.2 0.6
v 0.1 0.3 0.6
v 0.3 0.2 0.6
v 0.3 0.3 0.6
v -0.3 0.3 0.5
v -0.3 0.4 0.5
v -0.2 0.3 0.5
v -0.2 0.4 0.5
v 0.1 0.3 0.5
v 0.1 0.4 0.5
v 0.2 0.3 0.5
v 0.2 0.4 0.5
v -0.3 0 0.4
v -0.3 0.2 0.4
v -0.3 0.4 0.4
v -0.3 0.5 0.4
v -0.2 0 0.4
v -0.2 0.1 0.4
v -0.2 0.2 0.4
v -0.2 0.4 0.4
v -0.2 0.5 0.4
v 0 0 0.4
v 0 0.1 0.4
v 0.1 0 0.4
v 0.1 0.1 0.4
v 0.1 0.2 0.4
v 0.1 0.4 0.4
v 0.1 0.5 0.4
v 0.2 0.1 0.4
v 0.2 0.2 0.4
v 0.2 0.4 0.4
v 0.2 0.5 0.4
v -0.4 0 0.3
v -0.4 0.1 0.3
v -0.4 0.2 0.3
v -0.4 0.3 0.3
v -0.3 0 0.3
v -0.3 0.1 0.3
v -0.3 0.2 0.3
v -0.3 0.3 0.3
v 0.1 0 0.3
v 0.1 0.1 0.3
v 0.2 0.1 0.3
v 0.2 0.2 0.3
v 0.2 0.3 0.3
v 0.3 0 0.3
v 0.3 0.1 0.3
v 0.3 0.2 0.3
v 0.3 0.3 0.3
v -0.3 0.1 -0.7
v -0.3 0.2 -0.7
v -0.2 0.1 -0.7
v -0.2 0.2 -0.7
v 0.1 0.1 -0.7
v 0.1 0.2 -0.7
v 0.2 0.1 -0.7
v 0.2 0.2 -0.7
v -0.4 0 -0.8
v -0.4 0.1 -0.8
v -0.4 0.2 -0.8
v -0.4 0.3 -0.8
v -0.3 0.1 -0.8
v -0.3 0.2 -0.8
v -0.2 0 -0.8
v -0.2 0.1 -0.8
v -0.2 0.2 -0.8
v -0.2 0.3 -0.8
v 0.1 0 -0.8
v 0.1 0.1 -0.8
v 0.1 0.2 -0.8
v 0.1 0.3 -0.8
v 0.2 0.1 -0.8
v 0.2 0.2 -0.8
v 0.3 0 -0.8
v 0.3 0.1 -0.8
v 0.3 0.2 -0.8
v 0.3 0.3 -0.8
v -0.3 0.3 -0.9
v -0.3 0.4 -0.9
v -0.2 0.3 -0.9
v -0.2 0.4 -0.9
v 0.1 0.3 -0.9
v 0.1 0.4 -0.9
v 0.2 0.3 -0.9
v 0.2 0.4 -0.9
v -0.3 0.4 -1
v -0.3 0.5 -1
v -0.2 0.4 -1
v -0.2 0.5 -1
v 0.1 0.4 -1
v 0.1 0.5 -1
v 0.2 0.4 -1
v 0.2 0.5 -1
v -0.4 0.2 -1.1
v -0.4 0.3 -1.1
v -0.3 0.2 -1.1
v -0.3 0.3 -1.1
v 0.2 0.2 -1.1
v 0.2 0.3 -1.1
v 0.3 0.2 -1.1
v 0.3 0.3 -1.1
v -0.4 0.2 0.4
v -0.4 0.3 0.4
v -0.3 0.2 0.4
v -0.3 0.3 0.4
v 0.2 0.2 0.4
v 0.2 0.3 0.4
v 0.3 0.2 0.4
v 0.3 0.3 0.4
v -0.3 0.4 0.3
v -0.3 0.5 0.3
v -0.2 0.4 0.3
v -0.2 0.5 0.3
v 0.1 0.4 0.3
v 0.1 0.5 0.3
v 0.2 0.4 0.3
v 0.2 0.5 0.3
v -0.3 0.3 0.2
v -0.3 0.4 0.2
v -0.2 0.3 0.2
v -0.2 0.4 0.2
v 0 0 0.2
v 0 0.1 0.2
v 0.1 0 0.2
v 0.1 0.1 0.2
v 0.1 0.3 0.2
v 0.1 0.4 0.2
v 0.2 0.3 0.2
v 0.2 0.4 0.2
v -0.4 0 0.1
v -0.4 0.1 0.1
v -0.4 0.2 0.1
v -0.4 0.3 0.1
v -0.3 0.1 0.1
v -0.3 0.2 0.1
v -0.2 0 0.1
v -0.2 0.1 0.1
v -0.2 0.2 0.1
v -0.2 0.3 0.1
v 0.1 0 0.1
v 0.1 0.1 0.1
v 0.1 0.2 0.1
v 0.1 0.3 0.1
v 0.2 0.1 0.1
v 0.2 0.2 0.1
v 0.3 0 0.1
v 0.3 0.1 0.1
v 0.3 0.2 0.1
v 0.3 0.3 0.1
v -0.3 0.1 5.96046e-008
v -0.3 0.2 5.96046e-008
v -0.2 0.1 5.96046e-008
v -0.2 0.2 5.96046e-008
v 0.1 0.1 5.96046e-008
v 0.1 0.2 5.96046e-008
v 0.2 0.1 5.96046e-008
v 0.2 0.2 5.96046e-008
v -0.4 0 -1
v -0.4 0.1 -1
v -0.4 0.2 -1
v -0.4 0.3 -1
v -0.3 0 -1
v -0.3 0.1 -1
v -0.3 0.2 -1
v -0.3 0.3 -1
v 0.2 0 -1
v 0.2 0.1 -1
v 0.2 0.2 -1
v 0.2 0.3 -1
v 0.3 0 -1
v 0.3 0.1 -1
v 0.3 0.2 -1
v 0.3 0.3 -1
v -0.3 0 -1.1
v -0.3 0.2 -1.1
v -0.3 0.4 -1.1
v -0.3 0.5 -1.1
v -0.2 0 -1.1
v -0.2 0.1 -1.1
v -0.2 0.2 -1.1
v -0.2 0.4 -1.1
v -0.2 0.5 -1.1
v 0.1 0 -1.1
v 0.1 0.1 -1.1
v 0.1 0.2 -1.1
v 0.1 0.4 -1.1
v 0.1 0.5 -1.1
v 0.2 0 -1.1
v 0.2 0.2 -1.1
v 0.2 0.4 -1.1
v 0.2 0.5 -1.1
v -0.3 0.3 -1.2
v -0.3 0.4 -1.2
v -0.2 0.3 -1.2
v -0.2 0.4 -1.2
v 0.1 0.3 -1.2
v 0.1 0.4 -1.2
v 0.2 0.3 -1.2
v 0.2 0.4 -1.2
v -0.4 0.2 -1.3
v -0.4 0.3 -1.3
v -0.2 0.2 -1.3
v -0.2 0.3 -1.3
v 0.1 0.2 -1.3
v 0.1 0.3 -1.3
v 0.3 0.2 -1.3
v 0.3 0.3 -1.3
v -0.3 0 0.4
v -0.2 0 0.4
v 0 0 0.4
v 0.1 0 0.4
v -0.4 0 0.3
v -0.3 0 0.3
v -0.2 0 0.3
v 0.1 0 0.3
v 0.3 0 0.3
v 0 0 0.2
v 0.1 0 0.2
v -0.4 0 0.1
v -0.2 0 0.1
v 0.1 0 0.1
v 0.3 0 0.1
v -0.4 0 -0.8
v -0.2 0 -0.8
v 0.1 0 -0.8
v 0.3 0 -0.8
v -0.4 0 -1
v -0.3 0 -1
v -0.2 0 -1
v 0.1 0 -1
v 0.2 0 -1
v 0.3 0 -1
v -0.3 0 -1.1
v -0.2 0 -1.1
v 0.1 0 -1.1
v 0.2 0 -1.1
v -0.2 0.1 0.4
v 0 0.1 0.4
v 0.1 0.1 0.4
v 0.2 0.1 0.4
v -0.2 0.1 0.3
v 0.1 0.1 0.3
v 0.2 0.1 0.3
v 0 0.1 0.2
v 0.1 0.1 0.2
v -0.3 0.1 0.1
v -0.2 0.1 0.1
v 0.1 0.1 0.1
v 0.2 0.1 0.1
v -0.3 0.1 5.96046e-008
v -0.2 0.1 5.96046e-008
v 0.1 0.1 5.96046e-008
v 0.2 0.1 5.96046e-008
v -0.2 0.1 -0.1
v -0.1 0.1 -0.1
v 0 0.1 -0.1
v 0.1 0.1 -0.1
v -0.1 0.1 -0.2
v 0 0.1 -0.2
v -0.1 0.1 -0.5
v 0 0.1 -0.5
v -0.2 0.1 -0.6
v -0.1 0.1 -0.6
v 0 0.1 -0.6
v 0.1 0.1 -0.6
v -0.3 0.1 -0.7
v -0.2 0.1 -0.7
v 0.1 0.1 -0.7
v 0.2 0.1 -0.7
v -0.3 0.1 -0.8
v -0.2 0.1 -0.8
v 0.1 0.1 -0.8
v 0.2 0.1 -0.8
v -0.2 0.1 -1
v 0.1 0.1 -1
v -0.2 0.1 -1.1
v 0.1 0.1 -1.1
v -0.4 0.2 0.6
v -0.2 0.2 0.6
v 0.1 0.2 0.6
v 0.3 0.2 0.6
v -0.4 0.2 0.4
v -0.3 0.2 0.4
v -0.2 0.2 0.4
v 0.1 0.2 0.4
v 0.2 0.2 0.4
v 0.3 0.2 0.4
v -0.4 0.2 0.3
v -0.3 0.2 0.3
v 0.2 0.2 0.3
v 0.3 0.2 0.3
v -0.4 0.2 0.1
v -0.3 0.2 0.1
v 0.2 0.2 0.1
v 0.3 0.2 0.1
v -0.4 0.2 -0.8
v -0.3 0.2 -0.8
v 0.2 0.2 -0.8
v 0.3 0.2 -0.8
v -0.4 0.2 -1
v -0.3 0.2 -1
v 0.2 0.2 -1
v 0.3 0.2 -1
v -0.4 0.2 -1.1
v -0.3 0.2 -1.1
v -0.2 0.2 -1.1
v 0.1 0.2 -1.1
v 0.2 0.2 -1.1
v 0.3 0.2 -1.1
v -0.4 0.2 -1.3
v -0.2 0.2 -1.3
v 0.1 0.2 -1.3
v 0.3 0.2 -1.3
v -0.4 0.1 0.3
v -0.3 0.1 0.3
v 0.2 0.1 0.3
v 0.3 0.1 0.3
v -0.4 0.1 0.1
v -0.3 0.1 0.1
v 0.2 0.1 0.1
v 0.3 0.1 0.1
v -0.4 0.1 -0.8
v -0.3 0.1 -0.8
v 0.2 0.1 -0.8
v 0.3 0.1 -0.8
v -0.4 0.1 -1
v -0.3 0.1 -1
v 0.2 0.1 -1
v 0.3 0.1 -1
v -0.2 0.2 0.4
v 0.1 0.2 0.4
v -0.2 0.2 0.3
v 0.1 0.2 0.3
v -0.3 0.2 0.1
v -0.2 0.2 0.1
v 0.1 0.2 0.1
v 0.2 0.2 0.1
v -0.3 0.2 5.96046e-008
v -0.2 0.2 5.96046e-008
v 0.1 0.2 5.96046e-008
v 0.2 0.2 5.96046e-008
v -0.2 0.2 -0.1
v -0.1 0.2 -0.1
v 0 0.2 -0.1
v 0.1 0.2 -0.1
v -0.1 0.2 -0.2
v 0 0.2 -0.2
v -0.1 0.2 -0.5
v 0 0.2 -0.5
v -0.2 0.2 -0.6
v -0.1 0.2 -0.6
v 0 0.2 -0.6
v 0.1 0.2 -0.6
v -0.3 0.2 -0.7
v -0.2 0.2 -0.7
v 0.1 0.2 -0.7
v 0.2 0.2 -0.7
v -0.3 0.2 -0.8
v -0.2 0.2 -0.8
v 0.1 0.2 -0.8
v 0.2 0.2 -0.8
v -0.2 0.2 -1
v 0.1 0.2 -1
v -0.2 0.2 -1.1
v 0.1 0.2 -1.1
v -0.4 0.3 0.6
v -0.2 0.3 0.6
v 0.1 0.3 0.6
v 0.3 0.3 0.6
v -0.3 0.3 0.5
v -0.2 0.3 0.5
v 0.1 0.3 0.5
v 0.2 0.3 0.5
v -0.4 0.3 0.4
v -0.3 0.3 0.4
v 0.2 0.3 0.4
v 0.3 0.3 0.4
v -0.4 0.3 0.3
v -0.3 0.3 0.3
v 0.2 0.3 0.3
v 0.3 0.3 0.3
v -0.3 0.3 0.2
v -0.2 0.3 0.2
v 0.1 0.3 0.2
v 0.2 0.3 0.2
v -0.4 0.3 0.1
v -0.2 0.3 0.1
v 0.1 0.3 0.1
v 0.3 0.3 0.1
v -0.4 0.3 -0.8
v -0.2 0.3 -0.8
v 0.1 0.3 -0.8
v 0.3 0.3 -0.8
v -0.3 0.3 -0.9
v -0.2 0.3 -0.9
v 0.1 0.3 -0.9
v 0.2 0.3 -0.9
v -0.4 0.3 -1
v -0.3 0.3 -1
v 0.2 0.3 -1
v 0.3 0.3 -1
v -0.4 0.3 -1.1
v -0.3 0.3 -1.1
v 0.2 0.3 -1.1
v 0.3 0.3 -1.1
v -0.3 0.3 -1.2
v -0.2 0.3 -1.2
v 0.1 0.3 -1.2
v 0.2 0.3 -1.2
v -0.4 0.3 -1.3
v -0.2 0.3 -1.3
v 0.1 0.3 -1.3
v 0.3 0.3 -1.3
v -0.3 0.4 0.5
v -0.2 0.4 0.5
v 0.1 0.4 0.5
v 0.2 0.4 0.5
v -0.3 0.4 0.4
v -0.2 0.4 0.4
v 0.1 0.4 0.4
v 0.2 0.4 0.4
v -0.3 0.4 0.3
v -0.2 0.4 0.3
v 0.1 0.4 0.3
v 0.2 0.4 0.3
v -0.3 0.4 0.2
v -0.2 0.4 0.2
v 0.1 0.4 0.2
v 0.2 0.4 0.2
v -0.3 0.4 -0.9
v -0.2 0.4 -0.9
v 0.1 0.4 -0.9
v 0.2 0.4 -0.9
v -0.3 0.4 -1
v -0.2 0.4 -1
v 0.1 0.4 -1
v 0.2 0.4 -1
v -0.3 0.4 -1.1
v -0.2 0.4 -1.1
v 0.1 0.4 -1.1
v 0.2 0.4 -1.1
v -0.3 0.4 -1.2
v -0.2 0.4 -1.2
v 0.1 0.4 -1.2
v 0.2 0.4 -1.2
v -0.3 0.5 0.4
v -0.2 0.5 0.4
v 0.1 0.5 0.4
v 0.2 0.5 0.4
v -0.3 0.5 0.3
v -0.2 0.5 0.3
v 0.1 0.5 0.3
v 0.2 0.5 0.3
v -0.3 0.5 -1
v -0.2 0.5 -1
v 0.1 0.5 -1
v 0.2 0.5 -1
v -0.3 0.5 -1.1
v -0.2 0.5 -1.1
v 0.1 0.5 -1.1
v 0.2 0.5 -1.1

# faces
f 5/3/1 2/3/1 1/3/1
f 6/3/1 2/3/1 5/3/1
f 7/3/1 4/3/1 3/3/1
f 8/3/1 4/3/1 7/3/1
f 17/3/1 10/3/1 9/3/1
f 18/3/1 10/3/1 17/3/1
f 19/3/1 12/3/1 11/3/1
f 20/3/1 12/3/1 19/3/1
f 21/3/1 14/3/1 13/3/1
f 22/3/1 14/3/1 21/3/1
f 23/3/1 16/3/1 15/3/1
f 24/3/1 16/3/1 23/3/1
f 29/4/1 26/4/1 25/4/1
f 34/4/1 28/4/1 27/4/1
f 35/4/1 29/4/1 25/4/1
f 35/4/1 30/4/1 29/4/1
f 35/4/1 31/4/1 30/4/1
f 36/4/1 31/4/1 35/4/1
f 37/4/1 31/4/1 36/4/1
f 38/4/1 31/4/1 37/4/1
f 39/4/1 33/4/1 32/4/1
f 39/4/1 34/4/1 33/4/1
f 40/4/1 34/4/1 39/4/1
f 41/4/1 28/4/1 34/4/1
f 41/4/1 34/4/1 40/4/1
f 42/4/1 28/4/1 41/4/1
f 44/4/1 36/4/1 35/4/1
f 45/4/1 36/4/1 44/4/1
f 48/4/1 42/4/1 41/4/1
f 49/4/1 42/4/1 48/4/1
f 51/4/1 46/4/1 45/4/1
f 51/4/1 44/4/1 43/4/1
f 51/4/1 45/4/1 44/4/1
f 52/4/1 46/4/1 51/4/1
f 53/4/1 46/4/1 52/4/1
f 54/4/1 46/4/1 53/4/1
f 55/4/1 49/4/1 48/4/1
f 55/4/1 50/4/1 49/4/1
f 55/4/1 48/4/1 47/4/1
f 56/4/1 50/4/1 55/4/1
f 57/4/1 50/4/1 56/4/1
f 58/4/1 50/4/1 57/4/1
f 59/4/1 53/4/1 52/4/1
f 60/4/1 53/4/1 59/4/1
f 61/4/1 57/4/1 56/4/1
f 62/4/1 57/4/1 61/4/1
f 67/2/1 64/2/1 63/2/1
f 68/1/1 65/1/1 64/1/1
f 68/2/1 64/2/1 67/2/1
f 69/2/1 66/2/1 65/2/1
f 69/1/1 65/1/1 68/1/1
f 70/2/1 66/2/1 69/2/1
f 73/3/1 72/3/1 71/3/1
f 74/3/1 72/3/1 73/3/1
f 80/3/1 76/3/1 75/3/1
f 81/3/1 76/3/1 80/3/1
f 82/3/1 78/3/1 77/3/1
f 83/4/1 79/4/1 78/4/1
f 83/3/1 78/3/1 82/3/1
f 84/4/1 79/4/1 83/4/1
f 93/3/1 86/3/1 85/3/1
f 94/3/1 86/3/1 93/3/1
f 95/4/1 87/4/1 86/4/1
f 95/3/1 86/3/1 94/3/1
f 96/3/1 88/3/1 87/3/1
f 96/4/1 87/4/1 95/4/1
f 97/3/1 88/3/1 96/3/1
f 98/3/1 88/3/1 97/3/1
f 99/3/1 90/3/1 89/3/1
f 100/3/1 90/3/1 99/3/1
f 101/4/1 91/4/1 90/4/1
f 101/3/1 90/3/1 100/3/1
f 102/3/1 92/3/1 91/3/1
f 102/4/1 91/4/1 101/4/1
f 103/3/1 92/3/1 102/3/1
f 104/3/1 92/3/1 103/3/1
f 105/4/1 95/4/1 94/4/1
f 105/4/1 96/4/1 95/4/1
f 105/4/1 97/4/1 96/4/1
f 106/4/1 97/4/1 105/4/1
f 107/4/1 97/4/1 106/4/1
f 108/4/1 97/4/1 107/4/1
f 109/4/1 101/4/1 100/4/1
f 109/4/1 103/4/1 102/4/1
f 109/4/1 102/4/1 101/4/1
f 110/4/1 103/4/1 109/4/1
f 111/4/1 103/4/1 110/4/1
f 112/4/1 103/4/1 111/4/1
f 113/4/1 107/4/1 106/4/1
f 114/4/1 107/4/1 113/4/1
f 115/4/1 111/4/1 110/4/1
f 116/4/1 111/4/1 115/4/1
f 117/4/2 118/4/2 123/4/2
f 118/3/2 119/3/2 124/3/2
f 123/4/2 118/4/2 124/4/2
f 124/3/2 119/3/2 125/3/2
f 120/3/2 121/3/2 126/3/2
f 121/4/2 122/4/2 127/4/2
f 126/3/2 121/3/2 127/3/2
f 127/4/2 122/4/2 128/4/2
f 129/3/2 130/3/2 137/3/2
f 137/3/2 130/3/2 138/3/2
f 130/4/2 131/4/2 139/4/2
f 138/3/2 130/3/2 139/3/2
f 131/3/2 132/3/2 140/3/2
f 139/4/2 131/4/2 140/4/2
f 140/3/2 132/3/2 141/3/2
f 141/3/2 132/3/2 142/3/2
f 133/3/2 134/3/2 143/3/2
f 143/3/2 134/3/2 144/3/2
f 134/4/2 135/4/2 145/4/2
f 144/3/2 134/3/2 145/3/2
f 135/3/2 136/3/2 146/3/2
f 145/4/2 135/4/2 146/4/2
f 146/3/2 136/3/2 147/3/2
f 147/3/2 136/3/2 148/3/2
f 138/4/2 139/4/2 149/4/2
f 139/4/2 140/4/2 149/4/2
f 140/4/2 141/4/2 149/4/2
f 149/4/2 141/4/2 150/4/2
f 150/4/2 141/4/2 151/4/2
f 151/4/2 141/4/2 152/4/2
f 144/4/2 145/4/2 153/4/2
f 146/4/2 147/4/2 153/4/2
f 145/4/2 146/4/2 153/4/2
f 153/4/2 147/4/2 154/4/2
f 154/4/2 147/4/2 155/4/2
f 155/4/2 147/4/2 156/4/2
f 150/4/2 151/4/2 157/4/2
f 157/4/2 151/4/2 158/4/2
f 154/4/2 155/4/2 159/4/2
f 159/4/2 155/4/2 160/4/2
f 161/3/2 162/3/2 163/3/2
f 163/3/2 162/3/2 164/3/2
f 165/2/2 166/2/2 169/2/2
f 166/1/2 167/1/2 170/1/2
f 169/2/2 166/2/2 170/2/2
f 167/2/2 168/2/2 171/2/2
f 170/1/2 167/1/2 171/1/2
f 171/2/2 168/2/2 172/2/2
f 173/4/2 174/4/2 181/4/2
f 175/4/2 176/4/2 182/4/2
f 176/4/2 177/4/2 182/4/2
f 177/4/2 178/4/2 182/4/2
f 182/4/2 178/4/2 183/4/2
f 183/4/2 178/4/2 184/4/2
f 184/4/2 178/4/2 185/4/2
f 179/4/2 180/4/2 186/4/2
f 180/4/2 181/4/2 186/4/2
f 186/4/2 181/4/2 187/4/2
f 181/4/2 174/4/2 188/4/2
f 187/4/2 181/4/2 188/4/2
f 188/4/2 174/4/2 189/4/2
f 182/4/2 183/4/2 191/4/2
f 191/4/2 183/4/2 192/4/2
f 188/4/2 189/4/2 195/4/2
f 195/4/2 189/4/2 196/4/2
f 192/4/2 193/4/2 198/4/2
f 190/4/2 191/4/2 198/4/2
f 191/4/2 192/4/2 198/4/2
f 198/4/2 193/4/2 199/4/2
f 199/4/2 193/4/2 200/4/2
f 200/4/2 193/4/2 201/4/2
f 195/4/2 196/4/2 202/4/2
f 196/4/2 197/4/2 202/4/2
f 194/4/2 195/4/2 202/4/2
f 202/4/2 197/4/2 203/4/2
f 203/4/2 197/4/2 204/4/2
f 204/4/2 197/4/2 205/4/2
f 199/4/2 200/4/2 206/4/2
f 206/4/2 200/4/2 207/4/2
f 203/4/2 204/4/2 208/4/2
f 208/4/2 204/4/2 209/4/2
f 210/3/2 211/3/2 214/3/2
f 214/3/2 211/3/2 215/3/2
f 212/3/2 213/3/2 216/3/2
f 216/3/2 213/3/2 217/3/2
f 218/3/2 219/3/2 226/3/2
f 226/3/2 219/3/2 227/3/2
f 220/3/2 221/3/2 228/3/2
f 228/3/2 221/3/2 229/3/2
f 222/3/2 223/3/2 230/3/2
f 230/3/2 223/3/2 231/3/2
f 224/3/2 225/3/2 232/3/2
f 232/3/2 225/3/2 233/3/2
f 236/3/3 235/3/3 234/3/3
f 237/3/3 235/3/3 236/3/3
f 240/3/3 239/3/3 238/3/3
f 241/3/3 239/3/3 240/3/3
f 244/4/3 243/4/3 242/4/3
f 245/4/3 243/4/3 244/4/3
f 248/4/3 247/4/3 246/4/3
f 249/4/3 247/4/3 248/4/3
f 254/4/3 251/4/3 250/4/3
f 255/4/3 251/4/3 254/4/3
f 256/4/3 251/4/3 255/4/3
f 257/4/3 253/4/3 252/4/3
f 258/4/3 253/4/3 257/4/3
f 260/3/3 256/3/3 255/3/3
f 261/3/3 260/3/3 259/3/3
f 262/3/3 256/3/3 260/3/3
f 262/3/3 260/3/3 261/3/3
f 263/3/3 256/3/3 262/3/3
f 266/4/3 263/4/3 262/4/3
f 267/4/3 263/4/3 266/4/3
f 268/4/3 265/4/3 264/4/3
f 269/4/3 265/4/3 268/4/3
f 274/3/3 271/3/3 270/3/3
f 275/3/3 271/3/3 274/3/3
f 276/3/3 273/3/3 272/3/3
f 277/3/3 273/3/3 276/3/3
f 280/3/3 279/3/3 278/3/3
f 283/3/3 280/3/3 278/3/3
f 284/3/3 280/3/3 283/3/3
f 285/3/3 282/3/3 281/3/3
f 286/3/3 282/3/3 285/3/3
f 289/4/3 288/4/3 287/4/3
f 290/4/3 288/4/3 289/4/3
f 293/4/3 292/4/3 291/4/3
f 294/4/3 292/4/3 293/4/3
f 299/3/3 296/3/3 295/3/3
f 300/3/3 298/3/3 297/3/3
f 301/3/3 299/3/3 295/3/3
f 302/3/3 299/3/3 301/3/3
f 303/3/3 298/3/3 300/3/3
f 304/3/3 298/3/3 303/3/3
f 309/3/3 306/3/3 305/3/3
f 310/3/3 308/3/3 307/3/3
f 311/3/3 309/3/3 305/3/3
f 312/3/3 309/3/3 311/3/3
f 313/3/3 308/3/3 310/3/3
f 314/3/3 308/3/3 313/3/3
f 317/4/3 316/4/3 315/4/3
f 318/4/3 316/4/3 317/4/3
f 321/4/3 320/4/3 319/4/3
f 322/4/3 320/4/3 321/4/3
f 325/4/3 324/4/3 323/4/3
f 326/4/3 324/4/3 325/4/3
f 329/4/3 328/4/3 327/4/3
f 330/4/3 328/4/3 329/4/3
f 333/3/3 332/3/3 331/3/3
f 334/3/3 332/3/3 333/3/3
f 337/3/3 336/3/3 335/3/3
f 338/3/3 336/3/3 337/3/3
f 339/3/4 340/3/4 341/3/4
f 341/3/4 340/3/4 342/3/4
f 343/3/4 344/3/4 345/3/4
f 345/3/4 344/3/4 346/3/4
f 347/4/4 348/4/4 349/4/4
f 349/4/4 348/4/4 350/4/4
f 351/4/4 352/4/4 353/4/4
f 353/4/4 352/4/4 354/4/4
f 355/4/4 356/4/4 357/4/4
f 357/4/4 356/4/4 358/4/4
f 359/3/4 360/3/4 361/3/4
f 361/3/4 360/3/4 362/3/4
f 363/4/4 364/4/4 365/4/4
f 365/4/4 364/4/4 366/4/4
f 367/3/4 368/3/4 371/3/4
f 369/3/4 370/3/4 372/3/4
f 367/3/4 371/3/4 373/3/4
f 373/3/4 371/3/4 374/3/4
f 372/3/4 370/3/4 375/3/4
f 375/3/4 370/3/4 376/3/4
f 377/3/4 378/3/4 381/3/4
f 379/3/4 380/3/4 382/3/4
f 377/3/4 381/3/4 383/3/4
f 383/3/4 381/3/4 384/3/4
f 382/3/4 380/3/4 385/3/4
f 385/3/4 380/3/4 386/3/4
f 387/4/4 388/4/4 389/4/4
f 389/4/4 388/4/4 390/4/4
f 391/4/4 392/4/4 393/4/4
f 393/4/4 392/4/4 394/4/4
f 395/3/4 396/3/4 399/3/4
f 399/3/4 396/3/4 400/3/4
f 397/3/4 398/3/4 401/3/4
f 401/3/4 398/3/4 402/3/4
f 403/3/4 404/3/4 407/3/4
f 407/3/4 404/3/4 408/3/4
f 405/3/4 406/3/4 409/3/4
f 409/3/4 406/3/4 410/3/4
f 411/4/4 412/4/4 415/4/4
f 415/4/4 412/4/4 416/4/4
f 416/4/4 412/4/4 417/4/4
f 413/4/4 414/4/4 418/4/4
f 418/4/4 414/4/4 419/4/4
f 416/3/4 417/3/4 421/3/4
f 421/3/4 417/3/4 422/3/4
f 420/4/4 421/4/4 425/4/4
f 421/4/4 422/4/4 425/4/4
f 425/4/4 422/4/4 426/4/4
f 423/4/4 424/4/4 427/4/4
f 427/4/4 424/4/4 428/4/4
f 429/4/4 430/4/4 431/4/4
f 431/4/4 430/4/4 432/4/4
f 433/4/4 434/4/4 435/4/4
f 435/4/4 434/4/4 436/4/4
f 437/3/4 438/3/4 439/3/4
f 439/3/4 438/3/4 440/3/4
f 441/3/4 442/3/4 443/3/4
f 443/3/4 442/3/4 444/3/4
f 450/4/5 446/4/5 445/4/5
f 451/4/5 446/4/5 450/4/5
f 452/3/5 448/3/5 447/3/5
f 454/3/5 452/3/5 447/3/5
f 454/3/5 453/3/5 452/3/5
f 455/3/5 453/3/5 454/3/5
f 456/3/5 451/3/5 450/3/5
f 456/3/5 450/3/5 449/3/5
f 457/3/5 451/3/5 456/3/5
f 458/3/5 453/3/5 455/3/5
f 459/3/5 453/3/5 458/3/5
f 464/3/5 461/3/5 460/3/5
f 465/3/5 461/3/5 464/3/5
f 466/3/5 461/3/5 465/3/5
f 467/3/5 463/3/5 462/3/5
f 468/3/5 463/3/5 467/3/5
f 469/3/5 463/3/5 468/3/5
f 470/4/5 466/4/5 465/4/5
f 471/4/5 466/4/5 470/4/5
f 472/4/5 468/4/5 467/4/5
f 473/4/5 468/4/5 472/4/5
f 478/3/5 475/3/5 474/3/5
f 479/4/5 477/4/5 476/4/5
f 480/4/5 477/4/5 479/4/5
f 481/3/5 475/3/5 478/3/5
f 484/3/5 481/3/5 478/3/5
f 484/3/5 482/3/5 481/3/5
f 485/3/5 482/3/5 484/3/5
f 487/4/5 484/4/5 483/4/5
f 487/4/5 486/4/5 485/4/5
f 487/4/5 485/4/5 484/4/5
f 488/4/5 486/4/5 487/4/5
f 489/4/5 486/4/5 488/4/5
f 490/4/5 486/4/5 489/4/5
f 491/2/5 489/2/5 488/2/5
f 492/2/5 489/2/5 491/2/5
f 493/2/5 489/2/5 492/2/5
f 494/2/5 489/2/5 493/2/5
f 495/1/5 492/1/5 491/1/5
f 495/2/5 493/2/5 492/2/5
f 496/1/5 494/1/5 493/1/5
f 496/2/5 493/2/5 495/2/5
f 497/1/5 495/1/5 491/1/5
f 497/1/5 496/1/5 495/1/5
f 498/1/5 494/1/5 496/1/5
f 498/1/5 496/1/5 497/1/5
f 499/1/5 497/1/5 491/1/5
f 500/2/5 498/2/5 497/2/5
f 500/1/5 497/1/5 499/1/5
f 501/1/5 494/1/5 498/1/5
f 501/2/5 498/2/5 500/2/5
f 502/1/5 494/1/5 501/1/5
f 504/2/5 500/2/5 499/2/5
f 504/2/5 501/2/5 500/2/5
f 504/2/5 502/2/5 501/2/5
f 505/2/5 502/2/5 504/2/5
f 507/4/5 505/4/5 504/4/5
f 507/4/5 506/4/5 505/4/5
f 507/4/5 504/4/5 503/4/5
f 508/4/5 506/4/5 507/4/5
f 509/4/5 506/4/5 508/4/5
f 510/4/5 506/4/5 509/4/5
f 511/3/5 509/3/5 508/3/5
f 512/3/5 509/3/5 511/3/5
f 513/3/5 512/3/5 511/3/5
f 514/3/5 512/3/5 513/3/5
f 519/3/5 516/3/5 515/3/5
f 520/3/5 516/3/5 519/3/5
f 521/3/5 516/3/5 520/3/5
f 522/3/5 518/3/5 517/3/5
f 523/3/5 518/3/5 522/3/5
f 524/3/5 518/3/5 523/3/5
f 529/3/5 526/3/5 525/3/5
f 530/3/5 526/3/5 529/3/5
f 531/3/5 528/3/5 527/3/5
f 532/3/5 528/3/5 531/3/5
f 537/3/5 534/3/5 533/3/5
f 538/3/5 534/3/5 537/3/5
f 539/3/5 536/3/5 535/3/5
f 540/3/5 536/3/5 539/3/5
f 547/3/5 542/3/5 541/3/5
f 547/3/5 543/3/5 542/3/5
f 548/3/5 543/3/5 547/3/5
f 549/3/5 546/3/5 545/3/5
f 549/3/5 545/3/5 544/3/5
f 550/3/5 546/3/5 549/3/5
f 551/3/6 552/3/6 555/3/6
f 555/3/6 552/3/6 556/3/6
f 553/3/6 554/3/6 557/3/6
f 557/3/6 554/3/6 558/3/6
f 559/3/6 560/3/6 563/3/6
f 563/3/6 560/3/6 564/3/6
f 561/3/6 562/3/6 565/3/6
f 565/3/6 562/3/6 566/3/6
f 567/3/6 568/3/6 569/3/6
f 569/3/6 568/3/6 570/3/6
f 569/3/6 570/3/6 572/3/6
f 572/3/6 570/3/6 573/3/6
f 572/4/6 573/4/6 575/4/6
f 573/4/6 574/4/6 575/4/6
f 571/4/6 572/4/6 575/4/6
f 575/4/6 574/4/6 576/4/6
f 576/4/6 574/4/6 577/4/6
f 577/4/6 574/4/6 578/4/6
f 576/2/6 577/2/6 579/2/6
f 579/2/6 577/2/6 580/2/6
f 580/2/6 577/2/6 581/2/6
f 581/2/6 577/2/6 582/2/6
f 579/1/6 580/1/6 583/1/6
f 580/2/6 581/2/6 583/2/6
f 581/1/6 582/1/6 584/1/6
f 583/2/6 581/2/6 584/2/6
f 579/1/6 583/1/6 585/1/6
f 583/1/6 584/1/6 585/1/6
f 584/1/6 582/1/6 586/1/6
f 585/1/6 584/1/6 586/1/6
f 579/1/6 585/1/6 587/1/6
f 585/2/6 586/2/6 588/2/6
f 587/1/6 585/1/6 588/1/6
f 586/1/6 582/1/6 589/1/6
f 588/2/6 586/2/6 589/2/6
f 589/1/6 582/1/6 590/1/6
f 587/2/6 588/2/6 592/2/6
f 588/2/6 589/2/6 592/2/6
f 589/2/6 590/2/6 592/2/6
f 592/2/6 590/2/6 593/2/6
f 592/4/6 593/4/6 595/4/6
f 593/4/6 594/4/6 595/4/6
f 591/4/6 592/4/6 595/4/6
f 595/4/6 594/4/6 596/4/6
f 596/4/6 594/4/6 597/4/6
f 597/4/6 594/4/6 598/4/6
f 596/3/6 597/3/6 599/3/6
f 599/3/6 597/3/6 600/3/6
f 599/3/6 600/3/6 601/3/6
f 601/3/6 600/3/6 602/3/6
f 603/3/6 604/3/6 607/3/6
f 607/3/6 604/3/6 608/3/6
f 605/3/6 606/3/6 609/3/6
f 609/3/6 606/3/6 610/3/6
f 603/3/6 607/3/6 611/3/6
f 611/3/6 607/3/6 612/3/6
f 610/3/6 606/3/6 613/3/6
f 613/3/6 606/3/6 614/3/6
f 615/3/6 616/3/6 619/3/6
f 617/3/6 618/3/6 622/3/6
f 619/3/6 620/3/6 623/3/6
f 615/3/6 619/3/6 623/3/6
f 623/3/6 620/3/6 624/3/6
f 621/3/6 622/3/6 625/3/6
f 622/3/6 618/3/6 626/3/6
f 625/3/6 622/3/6 626/3/6
f 627/3/6 628/3/6 631/3/6
f 631/3/6 628/3/6 632/3/6
f 629/3/6 630/3/6 633/3/6
f 633/3/6 630/3/6 634/3/6
f 627/3/6 631/3/6 635/3/6
f 635/3/6 631/3/6 636/3/6
f 634/3/6 630/3/6 637/3/6
f 637/3/6 630/3/6 638/3/6
f 639/3/6 640/3/6 643/3/6
f 641/3/6 642/3/6 646/3/6
f 643/3/6 644/3/6 647/3/6
f 639/3/6 643/3/6 647/3/6
f 647/3/6 644/3/6 648/3/6
f 645/3/6 646/3/6 649/3/6
f 646/3/6 642/3/6 650/3/6
f 649/3/6 646/3/6 650/3/6
f 651/4/6 652/4/6 655/4/6
f 655/4/6 652/4/6 656/4/6
f 653/4/6 654/4/6 657/4/6
f 657/4/6 654/4/6 658/4/6
f 659/4/6 660/4/6 663/4/6
f 663/4/6 660/4/6 664/4/6
f 661/4/6 662/4/6 665/4/6
f 665/4/6 662/4/6 666/4/6
f 667/4/6 668/4/6 671/4/6
f 671/4/6 668/4/6 672/4/6
f 669/4/6 670/4/6 673/4/6
f 673/4/6 670/4/6 674/4/6
f 675/4/6 676/4/6 679/4/6
f 679/4/6 676/4/6 680/4/6
f 677/4/6 678/4/6 681/4/6
f 681/4/6 678/4/6 682/4/6
f 683/4/6 684/4/6 687/4/6
f 687/4/6 684/4/6 688/4/6
f 685/4/6 686/4/6 689/4/6
f 689/4/6 686/4/6 690/4/6
f 691/4/6 692/4/6 695/4/6
f 695/4/6 692/4/6 696/4/6
f 693/4/6 694/4/6 697/4/6
f 697/4/6 694/4/6 698/4/6
