# MagicaVoxel @ Ephtracy

# group
o 

# material
mtllib bridge_3.mtl
usemtl palette

# normals
vn -1 0 0
vn 1 0 0
vn 0 0 1
vn 0 0 -1
vn 0 -1 0
vn 0 1 0

# texcoords
vt 0.685547 0.5
vt 0.955078 0.5
vt 0.990234 0.5

# verts
v -0.8 0.3 0.7
v -0.8 0.3 0.6
v -0.8 0.3 -0.7
v -0.8 0.3 -0.8
v -0.8 0.4 0.7
v -0.8 0.4 0.6
v -0.8 0.4 -0.7
v -0.8 0.4 -0.8
v -0.7 0.2 0.7
v -0.7 0.2 0.6
v -0.7 0.2 -0.7
v -0.7 0.2 -0.8
v -0.7 0.3 0.7
v -0.7 0.3 0.6
v -0.7 0.3 0.5
v -0.7 0.3 -0.6
v -0.7 0.3 -0.7
v -0.7 0.3 -0.8
v -0.7 0.4 0.7
v -0.7 0.4 0.6
v -0.7 0.4 0.5
v -0.7 0.4 -0.6
v -0.7 0.4 -0.7
v -0.7 0.4 -0.8
v -0.7 0.5 0.7
v -0.7 0.5 0.6
v -0.7 0.5 -0.7
v -0.7 0.5 -0.8
v -0.6 0.1 0.7
v -0.6 0.1 0.6
v -0.6 0.1 -0.7
v -0.6 0.1 -0.8
v -0.6 0.2 0.7
v -0.6 0.2 0.6
v -0.6 0.2 0.5
v -0.6 0.2 -0.6
v -0.6 0.2 -0.7
v -0.6 0.2 -0.8
v -0.6 0.3 0.6
v -0.6 0.3 0.5
v -0.6 0.3 0.4
v -0.6 0.3 0.2
v -0.6 0.3 0.1
v -0.6 0.3 -0.2
v -0.6 0.3 -0.3
v -0.6 0.3 -0.5
v -0.6 0.3 -0.6
v -0.6 0.3 -0.7
v -0.6 0.4 0.5
v -0.6 0.4 0.4
v -0.6 0.4 0.2
v -0.6 0.4 0.1
v -0.6 0.4 -0.2
v -0.6 0.4 -0.3
v -0.6 0.4 -0.5
v -0.6 0.4 -0.6
v -0.6 0.4 -0.7
v -0.6 0.5 0.7
v -0.6 0.5 0.6
v -0.6 0.5 -0.6
v -0.6 0.5 -0.7
v -0.6 0.5 -0.8
v -0.6 0.6 0.7
v -0.6 0.6 0.6
v -0.6 0.6 -0.7
v -0.6 0.6 -0.8
v -0.5 0 0.7
v -0.5 0 0.6
v -0.5 0 -0.7
v -0.5 0 -0.8
v -0.5 0.1 0.7
v -0.5 0.1 0.6
v -0.5 0.1 0.5
v -0.5 0.1 -0.6
v -0.5 0.1 -0.7
v -0.5 0.1 -0.8
v -0.5 0.2 0.6
v -0.5 0.2 0.5
v -0.5 0.2 0.4
v -0.5 0.2 -0.5
v -0.5 0.2 -0.6
v -0.5 0.2 -0.7
v -0.5 0.3 0.5
v -0.5 0.3 0.4
v -0.5 0.3 0.3
v -0.5 0.3 0.2
v -0.5 0.3 -0.3
v -0.5 0.3 -0.4
v -0.5 0.3 -0.5
v -0.5 0.3 -0.6
v -0.5 0.4 0.6
v -0.5 0.4 0.4
v -0.5 0.4 0.3
v -0.5 0.4 0.2
v -0.5 0.4 -0.3
v -0.5 0.4 -0.4
v -0.5 0.4 -0.5
v -0.5 0.4 -0.6
v -0.5 0.5 0.5
v -0.5 0.5 0.4
v -0.5 0.5 -0.5
v -0.5 0.5 -0.6
v -0.5 0.5 -0.7
v -0.5 0.6 0.7
v -0.5 0.6 0.6
v -0.5 0.6 0.5
v -0.5 0.6 -0.6
v -0.5 0.6 -0.7
v -0.5 0.6 -0.8
v -0.5 0.7 0.7
v -0.5 0.7 0.6
v -0.5 0.7 -0.7
v -0.5 0.7 -0.8
v -0.0999998 0.4 0.7
v -0.0999998 0.4 0.4
v -0.0999998 0.4 -0.5
v -0.0999998 0.4 -0.8
v -0.0999998 0.5 0.5
v -0.0999998 0.5 0.4
v -0.0999998 0.5 -0.5
v -0.0999998 0.5 -0.6
v -0.0999998 0.6 0.6
v -0.0999998 0.6 0.5
v -0.0999998 0.6 -0.6
v -0.0999998 0.6 -0.7
v -0.0999998 0.7 0.7
v -0.0999998 0.7 0.6
v -0.0999998 0.7 -0.7
v -0.0999998 0.7 -0.8
v -0.4 0.4 0.7
v -0.4 0.4 0.4
v -0.4 0.4 -0.5
v -0.4 0.4 -0.8
v -0.4 0.5 0.5
v -0.4 0.5 0.4
v -0.4 0.5 -0.5
v -0.4 0.5 -0.6
v -0.4 0.6 0.6
v -0.4 0.6 0.5
v -0.4 0.6 -0.6
v -0.4 0.6 -0.7
v -0.4 0.7 0.7
v -0.4 0.7 0.6
v -0.4 0.7 -0.7
v -0.4 0.7 -0.8
v 1.78814e-007 0 0.7
v 1.78814e-007 0 0.6
v 1.78814e-007 0 -0.7
v 1.78814e-007 0 -0.8
v 1.78814e-007 0.1 0.7
v 1.78814e-007 0.1 0.6
v 1.78814e-007 0.1 0.5
v 1.78814e-007 0.1 -0.6
v 1.78814e-007 0.1 -0.7
v 1.78814e-007 0.1 -0.8
v 1.78814e-007 0.2 0.6
v 1.78814e-007 0.2 0.5
v 1.78814e-007 0.2 0.4
v 1.78814e-007 0.2 -0.5
v 1.78814e-007 0.2 -0.6
v 1.78814e-007 0.2 -0.7
v 1.78814e-007 0.3 0.5
v 1.78814e-007 0.3 0.4
v 1.78814e-007 0.3 0.3
v 1.78814e-007 0.3 0.2
v 1.78814e-007 0.3 -0.3
v 1.78814e-007 0.3 -0.4
v 1.78814e-007 0.3 -0.5
v 1.78814e-007 0.3 -0.6
v 1.78814e-007 0.4 0.5
v 1.78814e-007 0.4 0.4
v 1.78814e-007 0.4 0.3
v 1.78814e-007 0.4 0.2
v 1.78814e-007 0.4 -0.3
v 1.78814e-007 0.4 -0.4
v 1.78814e-007 0.4 -0.5
v 1.78814e-007 0.4 -0.6
v 1.78814e-007 0.5 0.6
v 1.78814e-007 0.5 0.5
v 1.78814e-007 0.5 0.4
v 1.78814e-007 0.5 -0.5
v 1.78814e-007 0.5 -0.6
v 1.78814e-007 0.5 -0.7
v 1.78814e-007 0.6 0.7
v 1.78814e-007 0.6 0.6
v 1.78814e-007 0.6 0.5
v 1.78814e-007 0.6 -0.6
v 1.78814e-007 0.6 -0.7
v 1.78814e-007 0.6 -0.8
v 1.78814e-007 0.7 0.7
v 1.78814e-007 0.7 0.6
v 1.78814e-007 0.7 -0.7
v 1.78814e-007 0.7 -0.8
v 0.1 0.1 0.7
v 0.1 0.1 0.6
v 0.1 0.1 -0.7
v 0.1 0.1 -0.8
v 0.1 0.2 0.7
v 0.1 0.2 0.6
v 0.1 0.2 0.5
v 0.1 0.2 -0.6
v 0.1 0.2 -0.7
v 0.1 0.2 -0.8
v 0.1 0.3 0.6
v 0.1 0.3 0.5
v 0.1 0.3 0.4
v 0.1 0.3 0.2
v 0.1 0.3 0.1
v 0.1 0.3 -0.2
v 0.1 0.3 -0.3
v 0.1 0.3 -0.5
v 0.1 0.3 -0.6
v 0.1 0.3 -0.7
v 0.1 0.4 0.6
v 0.1 0.4 0.5
v 0.1 0.4 0.4
v 0.1 0.4 0.2
v 0.1 0.4 0.1
v 0.1 0.4 -0.2
v 0.1 0.4 -0.3
v 0.1 0.4 -0.5
v 0.1 0.4 -0.6
v 0.1 0.4 -0.7
v 0.1 0.5 0.7
v 0.1 0.5 0.6
v 0.1 0.5 0.5
v 0.1 0.5 -0.6
v 0.1 0.5 -0.7
v 0.1 0.5 -0.8
v 0.1 0.6 0.7
v 0.1 0.6 0.6
v 0.1 0.6 -0.7
v 0.1 0.6 -0.8
v 0.2 0.2 0.7
v 0.2 0.2 0.6
v 0.2 0.2 -0.7
v 0.2 0.2 -0.8
v 0.2 0.3 0.7
v 0.2 0.3 0.6
v 0.2 0.3 0.5
v 0.2 0.3 -0.6
v 0.2 0.3 -0.7
v 0.2 0.3 -0.8
v 0.2 0.4 0.7
v 0.2 0.4 0.6
v 0.2 0.4 0.5
v 0.2 0.4 -0.6
v 0.2 0.4 -0.7
v 0.2 0.4 -0.8
v 0.2 0.5 0.7
v 0.2 0.5 0.6
v 0.2 0.5 -0.7
v 0.2 0.5 -0.8
v 0.3 0.3 0.7
v 0.3 0.3 0.6
v 0.3 0.3 -0.7
v 0.3 0.3 -0.8
v 0.3 0.4 0.7
v 0.3 0.4 0.6
v 0.3 0.4 -0.7
v 0.3 0.4 -0.8
v -0.8 0.3 0.7
v -0.8 0.4 0.7
v -0.7 0.2 0.7
v -0.7 0.3 0.7
v -0.7 0.4 0.7
v -0.7 0.5 0.7
v -0.6 0.1 0.7
v -0.6 0.2 0.7
v -0.6 0.5 0.7
v -0.6 0.6 0.7
v -0.5 0 0.7
v -0.5 0.1 0.7
v -0.5 0.6 0.7
v -0.5 0.7 0.7
v -0.4 0.3 0.7
v -0.4 0.4 0.7
v -0.4 0.7 0.7
v -0.0999998 0.3 0.7
v -0.0999998 0.4 0.7
v -0.0999998 0.7 0.7
v 1.78814e-007 0 0.7
v 1.78814e-007 0.1 0.7
v 1.78814e-007 0.6 0.7
v 1.78814e-007 0.7 0.7
v 0.1 0.1 0.7
v 0.1 0.2 0.7
v 0.1 0.5 0.7
v 0.1 0.6 0.7
v 0.2 0.2 0.7
v 0.2 0.3 0.7
v 0.2 0.4 0.7
v 0.2 0.5 0.7
v 0.3 0.3 0.7
v 0.3 0.4 0.7
v -0.6 0.3 0.2
v -0.6 0.4 0.2
v -0.5 0.3 0.2
v -0.5 0.4 0.2
v 1.78814e-007 0.3 0.2
v 1.78814e-007 0.4 0.2
v 0.1 0.3 0.2
v 0.1 0.4 0.2
v -0.6 0.3 -0.5
v -0.6 0.4 -0.5
v -0.5 0.2 -0.5
v -0.5 0.3 -0.5
v -0.5 0.4 -0.5
v -0.5 0.5 -0.5
v -0.4 0.3 -0.5
v -0.4 0.4 -0.5
v -0.4 0.5 -0.5
v -0.0999998 0.3 -0.5
v -0.0999998 0.4 -0.5
v -0.0999998 0.5 -0.5
v 1.78814e-007 0.2 -0.5
v 1.78814e-007 0.3 -0.5
v 1.78814e-007 0.4 -0.5
v 1.78814e-007 0.5 -0.5
v 0.1 0.3 -0.5
v 0.1 0.4 -0.5
v -0.7 0.3 -0.6
v -0.7 0.4 -0.6
v -0.6 0.2 -0.6
v -0.6 0.3 -0.6
v -0.6 0.4 -0.6
v -0.6 0.5 -0.6
v -0.5 0.1 -0.6
v -0.5 0.2 -0.6
v -0.5 0.3 -0.6
v -0.5 0.4 -0.6
v -0.5 0.5 -0.6
v -0.5 0.6 -0.6
v -0.4 0.5 -0.6
v -0.4 0.6 -0.6
v -0.0999998 0.5 -0.6
v -0.0999998 0.6 -0.6
v 1.78814e-007 0.1 -0.6
v 1.78814e-007 0.2 -0.6
v 1.78814e-007 0.3 -0.6
v 1.78814e-007 0.4 -0.6
v 1.78814e-007 0.5 -0.6
v 1.78814e-007 0.6 -0.6
v 0.1 0.2 -0.6
v 0.1 0.3 -0.6
v 0.1 0.4 -0.6
v 0.1 0.5 -0.6
v 0.2 0.3 -0.6
v 0.2 0.4 -0.6
v -0.8 0.3 -0.7
v -0.8 0.4 -0.7
v -0.7 0.2 -0.7
v -0.7 0.3 -0.7
v -0.7 0.4 -0.7
v -0.7 0.5 -0.7
v -0.6 0.1 -0.7
v -0.6 0.2 -0.7
v -0.6 0.3 -0.7
v -0.6 0.4 -0.7
v -0.6 0.5 -0.7
v -0.6 0.6 -0.7
v -0.5 0 -0.7
v -0.5 0.1 -0.7
v -0.5 0.2 -0.7
v -0.5 0.5 -0.7
v -0.5 0.6 -0.7
v -0.5 0.7 -0.7
v -0.4 0.6 -0.7
v -0.4 0.7 -0.7
v -0.0999998 0.6 -0.7
v -0.0999998 0.7 -0.7
v 1.78814e-007 0 -0.7
v 1.78814e-007 0.1 -0.7
v 1.78814e-007 0.2 -0.7
v 1.78814e-007 0.5 -0.7
v 1.78814e-007 0.6 -0.7
v 1.78814e-007 0.7 -0.7
v 0.1 0.1 -0.7
v 0.1 0.2 -0.7
v 0.1 0.3 -0.7
v 0.1 0.4 -0.7
v 0.1 0.5 -0.7
v 0.1 0.6 -0.7
v 0.2 0.2 -0.7
v 0.2 0.3 -0.7
v 0.2 0.4 -0.7
v 0.2 0.5 -0.7
v 0.3 0.3 -0.7
v 0.3 0.4 -0.7
v -0.8 0.3 0.6
v -0.8 0.4 0.6
v -0.7 0.2 0.6
v -0.7 0.3 0.6
v -0.7 0.4 0.6
v -0.7 0.5 0.6
v -0.6 0.1 0.6
v -0.6 0.2 0.6
v -0.6 0.3 0.6
v -0.6 0.5 0.6
v -0.6 0.6 0.6
v -0.5 0 0.6
v -0.5 0.1 0.6
v -0.5 0.2 0.6
v -0.5 0.4 0.6
v -0.5 0.6 0.6
v -0.5 0.7 0.6
v -0.4 0.6 0.6
v -0.4 0.7 0.6
v -0.0999998 0.6 0.6
v -0.0999998 0.7 0.6
v 1.78814e-007 0 0.6
v 1.78814e-007 0.1 0.6
v 1.78814e-007 0.2 0.6
v 1.78814e-007 0.5 0.6
v 1.78814e-007 0.6 0.6
v 1.78814e-007 0.7 0.6
v 0.1 0.1 0.6
v 0.1 0.2 0.6
v 0.1 0.3 0.6
v 0.1 0.4 0.6
v 0.1 0.5 0.6
v 0.1 0.6 0.6
v 0.2 0.2 0.6
v 0.2 0.3 0.6
v 0.2 0.4 0.6
v 0.2 0.5 0.6
v 0.3 0.3 0.6
v 0.3 0.4 0.6
v -0.7 0.3 0.5
v -0.7 0.4 0.5
v -0.6 0.2 0.5
v -0.6 0.3 0.5
v -0.6 0.4 0.5
v -0.5 0.1 0.5
v -0.5 0.2 0.5
v -0.5 0.3 0.5
v -0.5 0.5 0.5
v -0.5 0.6 0.5
v -0.4 0.5 0.5
v -0.4 0.6 0.5
v -0.0999998 0.5 0.5
v -0.0999998 0.6 0.5
v 1.78814e-007 0.1 0.5
v 1.78814e-007 0.2 0.5
v 1.78814e-007 0.3 0.5
v 1.78814e-007 0.4 0.5
v 1.78814e-007 0.5 0.5
v 1.78814e-007 0.6 0.5
v 0.1 0.2 0.5
v 0.1 0.3 0.5
v 0.1 0.4 0.5
v 0.1 0.5 0.5
v 0.2 0.3 0.5
v 0.2 0.4 0.5
v -0.6 0.3 0.4
v -0.6 0.4 0.4
v -0.5 0.2 0.4
v -0.5 0.3 0.4
v -0.5 0.4 0.4
v -0.5 0.5 0.4
v -0.4 0.3 0.4
v -0.4 0.4 0.4
v -0.4 0.5 0.4
v -0.0999998 0.3 0.4
v -0.0999998 0.4 0.4
v -0.0999998 0.5 0.4
v 1.78814e-007 0.2 0.4
v 1.78814e-007 0.3 0.4
v 1.78814e-007 0.4 0.4
v 1.78814e-007 0.5 0.4
v 0.1 0.3 0.4
v 0.1 0.4 0.4
v -0.6 0.3 -0.3
v -0.6 0.4 -0.3
v -0.5 0.3 -0.3
v -0.5 0.4 -0.3
v 1.78814e-007 0.3 -0.3
v 1.78814e-007 0.4 -0.3
v 0.1 0.3 -0.3
v 0.1 0.4 -0.3
v -0.8 0.3 -0.8
v -0.8 0.4 -0.8
v -0.7 0.2 -0.8
v -0.7 0.3 -0.8
v -0.7 0.4 -0.8
v -0.7 0.5 -0.8
v -0.6 0.1 -0.8
v -0.6 0.2 -0.8
v -0.6 0.5 -0.8
v -0.6 0.6 -0.8
v -0.5 0 -0.8
v -0.5 0.1 -0.8
v -0.5 0.6 -0.8
v -0.5 0.7 -0.8
v -0.4 0.3 -0.8
v -0.4 0.4 -0.8
v -0.4 0.7 -0.8
v -0.0999998 0.3 -0.8
v -0.0999998 0.4 -0.8
v -0.0999998 0.7 -0.8
v 1.78814e-007 0 -0.8
v 1.78814e-007 0.1 -0.8
v 1.78814e-007 0.6 -0.8
v 1.78814e-007 0.7 -0.8
v 0.1 0.1 -0.8
v 0.1 0.2 -0.8
v 0.1 0.5 -0.8
v 0.1 0.6 -0.8
v 0.2 0.2 -0.8
v 0.2 0.3 -0.8
v 0.2 0.4 -0.8
v 0.2 0.5 -0.8
v 0.3 0.3 -0.8
v 0.3 0.4 -0.8
v -0.5 0 0.7
v 1.78814e-007 0 0.7
v -0.5 0 0.6
v 1.78814e-007 0 0.6
v -0.5 0 -0.7
v 1.78814e-007 0 -0.7
v -0.5 0 -0.8
v 1.78814e-007 0 -0.8
v -0.6 0.1 0.7
v -0.5 0.1 0.7
v 1.78814e-007 0.1 0.7
v 0.1 0.1 0.7
v -0.6 0.1 0.6
v -0.5 0.1 0.6
v 1.78814e-007 0.1 0.6
v 0.1 0.1 0.6
v -0.5 0.1 0.5
v 1.78814e-007 0.1 0.5
v -0.5 0.1 -0.6
v 1.78814e-007 0.1 -0.6
v -0.6 0.1 -0.7
v -0.5 0.1 -0.7
v 1.78814e-007 0.1 -0.7
v 0.1 0.1 -0.7
v -0.6 0.1 -0.8
v -0.5 0.1 -0.8
v 1.78814e-007 0.1 -0.8
v 0.1 0.1 -0.8
v -0.7 0.2 0.7
v -0.6 0.2 0.7
v 0.1 0.2 0.7
v 0.2 0.2 0.7
v -0.7 0.2 0.6
v -0.6 0.2 0.6
v -0.5 0.2 0.6
v 1.78814e-007 0.2 0.6
v 0.1 0.2 0.6
v 0.2 0.2 0.6
v -0.6 0.2 0.5
v -0.5 0.2 0.5
v 1.78814e-007 0.2 0.5
v 0.1 0.2 0.5
v -0.5 0.2 0.4
v 1.78814e-007 0.2 0.4
v -0.5 0.2 -0.5
v 1.78814e-007 0.2 -0.5
v -0.6 0.2 -0.6
v -0.5 0.2 -0.6
v 1.78814e-007 0.2 -0.6
v 0.1 0.2 -0.6
v -0.7 0.2 -0.7
v -0.6 0.2 -0.7
v -0.5 0.2 -0.7
v 1.78814e-007 0.2 -0.7
v 0.1 0.2 -0.7
v 0.2 0.2 -0.7
v -0.7 0.2 -0.8
v -0.6 0.2 -0.8
v 0.1 0.2 -0.8
v 0.2 0.2 -0.8
v -0.8 0.3 0.7
v -0.7 0.3 0.7
v 0.2 0.3 0.7
v 0.3 0.3 0.7
v -0.8 0.3 0.6
v -0.7 0.3 0.6
v -0.6 0.3 0.6
v 0.1 0.3 0.6
v 0.2 0.3 0.6
v 0.3 0.3 0.6
v -0.7 0.3 0.5
v -0.6 0.3 0.5
v -0.5 0.3 0.5
v 1.78814e-007 0.3 0.5
v 0.1 0.3 0.5
v 0.2 0.3 0.5
v -0.6 0.3 0.4
v -0.5 0.3 0.4
v -0.4 0.3 0.4
v -0.0999998 0.3 0.4
v 1.78814e-007 0.3 0.4
v 0.1 0.3 0.4
v -0.5 0.3 0.3
v -0.4 0.3 0.3
v -0.0999998 0.3 0.3
v 1.78814e-007 0.3 0.3
v -0.6 0.3 0.2
v -0.5 0.3 0.2
v -0.4 0.3 0.2
v -0.3 0.3 0.2
v -0.2 0.3 0.2
v -0.0999998 0.3 0.2
v 1.78814e-007 0.3 0.2
v 0.1 0.3 0.2
v -0.6 0.3 0.1
v -0.3 0.3 0.1
v -0.2 0.3 0.1
v 0.1 0.3 0.1
v -0.6 0.3 -0.2
v -0.3 0.3 -0.2
v -0.2 0.3 -0.2
v 0.1 0.3 -0.2
v -0.6 0.3 -0.3
v -0.5 0.3 -0.3
v -0.4 0.3 -0.3
v -0.3 0.3 -0.3
v -0.2 0.3 -0.3
v -0.0999998 0.3 -0.3
v 1.78814e-007 0.3 -0.3
v 0.1 0.3 -0.3
v -0.5 0.3 -0.4
v -0.4 0.3 -0.4
v -0.0999998 0.3 -0.4
v 1.78814e-007 0.3 -0.4
v -0.6 0.3 -0.5
v -0.5 0.3 -0.5
v -0.4 0.3 -0.5
v -0.0999998 0.3 -0.5
v 1.78814e-007 0.3 -0.5
v 0.1 0.3 -0.5
v -0.7 0.3 -0.6
v -0.6 0.3 -0.6
v -0.5 0.3 -0.6
v 1.78814e-007 0.3 -0.6
v 0.1 0.3 -0.6
v 0.2 0.3 -0.6
v -0.8 0.3 -0.7
v -0.7 0.3 -0.7
v -0.6 0.3 -0.7
v 0.1 0.3 -0.7
v 0.2 0.3 -0.7
v 0.3 0.3 -0.7
v -0.8 0.3 -0.8
v -0.7 0.3 -0.8
v 0.2 0.3 -0.8
v 0.3 0.3 -0.8
v -0.8 0.4 0.7
v -0.7 0.4 0.7
v -0.4 0.4 0.7
v -0.0999998 0.4 0.7
v 0.2 0.4 0.7
v 0.3 0.4 0.7
v -0.8 0.4 0.6
v -0.7 0.4 0.6
v -0.5 0.4 0.6
v 0.1 0.4 0.6
v 0.2 0.4 0.6
v 0.3 0.4 0.6
v -0.7 0.4 0.5
v -0.6 0.4 0.5
v -0.3 0.4 0.5
v -0.2 0.4 0.5
v 1.78814e-007 0.4 0.5
v 0.1 0.4 0.5
v 0.2 0.4 0.5
v -0.6 0.4 0.4
v -0.5 0.4 0.4
v -0.4 0.4 0.4
v -0.3 0.4 0.4
v -0.2 0.4 0.4
v -0.0999998 0.4 0.4
v 1.78814e-007 0.4 0.4
v 0.1 0.4 0.4
v -0.5 0.4 0.3
v -0.4 0.4 0.3
v -0.0999998 0.4 0.3
v 1.78814e-007 0.4 0.3
v -0.6 0.4 0.2
v -0.5 0.4 0.2
v -0.4 0.4 0.2
v -0.3 0.4 0.2
v -0.2 0.4 0.2
v -0.0999998 0.4 0.2
v 1.78814e-007 0.4 0.2
v 0.1 0.4 0.2
v -0.6 0.4 0.1
v -0.3 0.4 0.1
v -0.2 0.4 0.1
v 0.1 0.4 0.1
v -0.6 0.4 -0.2
v -0.3 0.4 -0.2
v -0.2 0.4 -0.2
v 0.1 0.4 -0.2
v -0.6 0.4 -0.3
v -0.5 0.4 -0.3
v -0.4 0.4 -0.3
v -0.3 0.4 -0.3
v -0.2 0.4 -0.3
v -0.0999998 0.4 -0.3
v 1.78814e-007 0.4 -0.3
v 0.1 0.4 -0.3
v -0.5 0.4 -0.4
v -0.4 0.4 -0.4
v -0.0999998 0.4 -0.4
v 1.78814e-007 0.4 -0.4
v -0.6 0.4 -0.5
v -0.5 0.4 -0.5
v -0.4 0.4 -0.5
v -0.3 0.4 -0.5
v -0.2 0.4 -0.5
v -0.0999998 0.4 -0.5
v 1.78814e-007 0.4 -0.5
v 0.1 0.4 -0.5
v -0.7 0.4 -0.6
v -0.6 0.4 -0.6
v -0.5 0.4 -0.6
v -0.3 0.4 -0.6
v -0.2 0.4 -0.6
v 1.78814e-007 0.4 -0.6
v 0.1 0.4 -0.6
v 0.2 0.4 -0.6
v -0.8 0.4 -0.7
v -0.7 0.4 -0.7
v -0.6 0.4 -0.7
v 0.1 0.4 -0.7
v 0.2 0.4 -0.7
v 0.3 0.4 -0.7
v -0.8 0.4 -0.8
v -0.7 0.4 -0.8
v -0.4 0.4 -0.8
v -0.0999998 0.4 -0.8
v 0.2 0.4 -0.8
v 0.3 0.4 -0.8
v -0.7 0.5 0.7
v -0.6 0.5 0.7
v 0.1 0.5 0.7
v 0.2 0.5 0.7
v -0.7 0.5 0.6
v -0.6 0.5 0.6
v 1.78814e-007 0.5 0.6
v 0.1 0.5 0.6
v 0.2 0.5 0.6
v -0.5 0.5 0.5
v -0.4 0.5 0.5
v -0.0999998 0.5 0.5
v 1.78814e-007 0.5 0.5
v 0.1 0.5 0.5
v -0.5 0.5 0.4
v -0.4 0.5 0.4
v -0.0999998 0.5 0.4
v 1.78814e-007 0.5 0.4
v -0.5 0.5 -0.5
v -0.4 0.5 -0.5
v -0.0999998 0.5 -0.5
v 1.78814e-007 0.5 -0.5
v -0.6 0.5 -0.6
v -0.5 0.5 -0.6
v -0.4 0.5 -0.6
v -0.0999998 0.5 -0.6
v 1.78814e-007 0.5 -0.6
v 0.1 0.5 -0.6
v -0.7 0.5 -0.7
v -0.6 0.5 -0.7
v -0.5 0.5 -0.7
v 1.78814e-007 0.5 -0.7
v 0.1 0.5 -0.7
v 0.2 0.5 -0.7
v -0.7 0.5 -0.8
v -0.6 0.5 -0.8
v 0.1 0.5 -0.8
v 0.2 0.5 -0.8
v -0.6 0.6 0.7
v -0.5 0.6 0.7
v 1.78814e-007 0.6 0.7
v 0.1 0.6 0.7
v -0.6 0.6 0.6
v -0.5 0.6 0.6
v -0.4 0.6 0.6
v -0.0999998 0.6 0.6
v 1.78814e-007 0.6 0.6
v 0.1 0.6 0.6
v -0.5 0.6 0.5
v -0.4 0.6 0.5
v -0.0999998 0.6 0.5
v 1.78814e-007 0.6 0.5
v -0.5 0.6 -0.6
v -0.4 0.6 -0.6
v -0.0999998 0.6 -0.6
v 1.78814e-007 0.6 -0.6
v -0.6 0.6 -0.7
v -0.5 0.6 -0.7
v -0.4 0.6 -0.7
v -0.0999998 0.6 -0.7
v 1.78814e-007 0.6 -0.7
v 0.1 0.6 -0.7
v -0.6 0.6 -0.8
v -0.5 0.6 -0.8
v 1.78814e-007 0.6 -0.8
v 0.1 0.6 -0.8
v -0.5 0.7 0.7
v -0.4 0.7 0.7
v -0.0999998 0.7 0.7
v 1.78814e-007 0.7 0.7
v -0.5 0.7 0.6
v -0.4 0.7 0.6
v -0.0999998 0.7 0.6
v 1.78814e-007 0.7 0.6
v -0.5 0.7 -0.7
v -0.4 0.7 -0.7
v -0.0999998 0.7 -0.7
v 1.78814e-007 0.7 -0.7
v -0.5 0.7 -0.8
v -0.4 0.7 -0.8
v -0.0999998 0.7 -0.8
v 1.78814e-007 0.7 -0.8

# faces
f 5/1/1 2/1/1 1/1/1
f 6/1/1 2/1/1 5/1/1
f 7/1/1 4/1/1 3/1/1
f 8/1/1 4/1/1 7/1/1
f 13/1/1 10/1/1 9/1/1
f 14/1/1 10/1/1 13/1/1
f 17/1/1 12/1/1 11/1/1
f 18/1/1 12/1/1 17/1/1
f 20/1/1 15/1/1 14/1/1
f 21/1/1 15/1/1 20/1/1
f 22/1/1 17/1/1 16/1/1
f 23/1/1 17/1/1 22/1/1
f 25/1/1 20/1/1 19/1/1
f 26/1/1 20/1/1 25/1/1
f 27/1/1 24/1/1 23/1/1
f 28/1/1 24/1/1 27/1/1
f 33/1/1 30/1/1 29/1/1
f 34/1/1 30/1/1 33/1/1
f 37/1/1 32/1/1 31/1/1
f 38/1/1 32/1/1 37/1/1
f 39/1/1 35/1/1 34/1/1
f 40/1/1 35/1/1 39/1/1
f 47/1/1 37/1/1 36/1/1
f 48/1/1 37/1/1 47/1/1
f 49/1/1 41/1/1 40/1/1
f 50/1/1 41/1/1 49/1/1
f 51/2/1 43/2/1 42/2/1
f 52/3/1 44/3/1 43/3/1
f 52/2/1 43/2/1 51/2/1
f 53/2/1 45/2/1 44/2/1
f 53/3/1 44/3/1 52/3/1
f 54/2/1 45/2/1 53/2/1
f 55/1/1 47/1/1 46/1/1
f 56/1/1 47/1/1 55/1/1
f 60/1/1 57/1/1 56/1/1
f 61/1/1 57/1/1 60/1/1
f 63/1/1 59/1/1 58/1/1
f 64/1/1 59/1/1 63/1/1
f 65/1/1 62/1/1 61/1/1
f 66/1/1 62/1/1 65/1/1
f 71/1/1 68/1/1 67/1/1
f 72/1/1 68/1/1 71/1/1
f 75/1/1 70/1/1 69/1/1
f 76/1/1 70/1/1 75/1/1
f 77/1/1 73/1/1 72/1/1
f 78/1/1 73/1/1 77/1/1
f 81/1/1 75/1/1 74/1/1
f 82/1/1 75/1/1 81/1/1
f 83/1/1 79/1/1 78/1/1
f 84/1/1 79/1/1 83/1/1
f 89/1/1 81/1/1 80/1/1
f 90/1/1 81/1/1 89/1/1
f 92/1/1 85/1/1 84/1/1
f 93/2/1 86/2/1 85/2/1
f 93/1/1 85/1/1 92/1/1
f 94/2/1 86/2/1 93/2/1
f 95/2/1 88/2/1 87/2/1
f 96/1/1 89/1/1 88/1/1
f 96/2/1 88/2/1 95/2/1
f 97/1/1 89/1/1 96/1/1
f 99/1/1 92/1/1 91/1/1
f 100/1/1 92/1/1 99/1/1
f 101/1/1 98/1/1 97/1/1
f 102/1/1 98/1/1 101/1/1
f 105/1/1 99/1/1 91/1/1
f 106/1/1 99/1/1 105/1/1
f 107/1/1 103/1/1 102/1/1
f 108/1/1 103/1/1 107/1/1
f 110/1/1 105/1/1 104/1/1
f 111/1/1 105/1/1 110/1/1
f 112/1/1 109/1/1 108/1/1
f 113/1/1 109/1/1 112/1/1
f 118/1/1 115/1/1 114/1/1
f 119/1/1 115/1/1 118/1/1
f 120/1/1 117/1/1 116/1/1
f 121/1/1 117/1/1 120/1/1
f 122/1/1 118/1/1 114/1/1
f 123/1/1 118/1/1 122/1/1
f 124/1/1 117/1/1 121/1/1
f 125/1/1 117/1/1 124/1/1
f 126/1/1 122/1/1 114/1/1
f 127/1/1 122/1/1 126/1/1
f 128/1/1 117/1/1 125/1/1
f 129/1/1 117/1/1 128/1/1
f 130/1/2 131/1/2 134/1/2
f 134/1/2 131/1/2 135/1/2
f 132/1/2 133/1/2 136/1/2
f 136/1/2 133/1/2 137/1/2
f 130/1/2 134/1/2 138/1/2
f 138/1/2 134/1/2 139/1/2
f 137/1/2 133/1/2 140/1/2
f 140/1/2 133/1/2 141/1/2
f 130/1/2 138/1/2 142/1/2
f 142/1/2 138/1/2 143/1/2
f 141/1/2 133/1/2 144/1/2
f 144/1/2 133/1/2 145/1/2
f 146/1/2 147/1/2 150/1/2
f 150/1/2 147/1/2 151/1/2
f 148/1/2 149/1/2 154/1/2
f 154/1/2 149/1/2 155/1/2
f 151/1/2 152/1/2 156/1/2
f 156/1/2 152/1/2 157/1/2
f 153/1/2 154/1/2 160/1/2
f 160/1/2 154/1/2 161/1/2
f 157/1/2 158/1/2 162/1/2
f 162/1/2 158/1/2 163/1/2
f 159/1/2 160/1/2 168/1/2
f 168/1/2 160/1/2 169/1/2
f 163/1/2 164/1/2 171/1/2
f 164/2/2 165/2/2 172/2/2
f 171/1/2 164/1/2 172/1/2
f 172/2/2 165/2/2 173/2/2
f 166/2/2 167/2/2 174/2/2
f 167/1/2 168/1/2 175/1/2
f 174/2/2 167/2/2 175/2/2
f 175/1/2 168/1/2 176/1/2
f 170/1/2 171/1/2 179/1/2
f 179/1/2 171/1/2 180/1/2
f 176/1/2 177/1/2 181/1/2
f 181/1/2 177/1/2 182/1/2
f 178/1/2 179/1/2 185/1/2
f 185/1/2 179/1/2 186/1/2
f 182/1/2 183/1/2 187/1/2
f 187/1/2 183/1/2 188/1/2
f 184/1/2 185/1/2 190/1/2
f 190/1/2 185/1/2 191/1/2
f 188/1/2 189/1/2 192/1/2
f 192/1/2 189/1/2 193/1/2
f 194/1/2 195/1/2 198/1/2
f 198/1/2 195/1/2 199/1/2
f 196/1/2 197/1/2 202/1/2
f 202/1/2 197/1/2 203/1/2
f 199/1/2 200/1/2 204/1/2
f 204/1/2 200/1/2 205/1/2
f 201/1/2 202/1/2 212/1/2
f 212/1/2 202/1/2 213/1/2
f 205/1/2 206/1/2 215/1/2
f 215/1/2 206/1/2 216/1/2
f 207/2/2 208/2/2 217/2/2
f 208/3/2 209/3/2 218/3/2
f 217/2/2 208/2/2 218/2/2
f 209/2/2 210/2/2 219/2/2
f 218/3/2 209/3/2 219/3/2
f 219/2/2 210/2/2 220/2/2
f 211/1/2 212/1/2 221/1/2
f 221/1/2 212/1/2 222/1/2
f 214/1/2 215/1/2 225/1/2
f 225/1/2 215/1/2 226/1/2
f 222/1/2 223/1/2 227/1/2
f 227/1/2 223/1/2 228/1/2
f 224/1/2 225/1/2 230/1/2
f 230/1/2 225/1/2 231/1/2
f 228/1/2 229/1/2 232/1/2
f 232/1/2 229/1/2 233/1/2
f 234/1/2 235/1/2 238/1/2
f 238/1/2 235/1/2 239/1/2
f 236/1/2 237/1/2 242/1/2
f 242/1/2 237/1/2 243/1/2
f 239/1/2 240/1/2 245/1/2
f 245/1/2 240/1/2 246/1/2
f 241/1/2 242/1/2 247/1/2
f 247/1/2 242/1/2 248/1/2
f 244/1/2 245/1/2 250/1/2
f 250/1/2 245/1/2 251/1/2
f 248/1/2 249/1/2 252/1/2
f 252/1/2 249/1/2 253/1/2
f 254/1/2 255/1/2 258/1/2
f 258/1/2 255/1/2 259/1/2
f 256/1/2 257/1/2 260/1/2
f 260/1/2 257/1/2 261/1/2
f 265/1/3 263/1/3 262/1/3
f 266/1/3 263/1/3 265/1/3
f 269/1/3 265/1/3 264/1/3
f 269/1/3 267/1/3 266/1/3
f 269/1/3 266/1/3 265/1/3
f 270/1/3 267/1/3 269/1/3
f 273/1/3 269/1/3 268/1/3
f 273/1/3 271/1/3 270/1/3
f 273/1/3 270/1/3 269/1/3
f 274/1/3 271/1/3 273/1/3
f 276/1/3 273/1/3 272/1/3
f 276/1/3 275/1/3 274/1/3
f 276/1/3 274/1/3 273/1/3
f 277/1/3 275/1/3 276/1/3
f 278/1/3 275/1/3 277/1/3
f 279/1/3 276/1/3 272/1/3
f 279/3/3 277/3/3 276/3/3
f 280/3/3 277/3/3 279/3/3
f 282/1/3 279/1/3 272/1/3
f 282/1/3 281/1/3 280/1/3
f 282/1/3 280/1/3 279/1/3
f 283/1/3 281/1/3 282/1/3
f 284/1/3 281/1/3 283/1/3
f 285/1/3 281/1/3 284/1/3
f 286/1/3 284/1/3 283/1/3
f 287/1/3 284/1/3 286/1/3
f 288/1/3 284/1/3 287/1/3
f 289/1/3 284/1/3 288/1/3
f 290/1/3 288/1/3 287/1/3
f 291/1/3 288/1/3 290/1/3
f 292/1/3 288/1/3 291/1/3
f 293/1/3 288/1/3 292/1/3
f 294/1/3 292/1/3 291/1/3
f 295/1/3 292/1/3 294/1/3
f 298/2/3 297/2/3 296/2/3
f 299/2/3 297/2/3 298/2/3
f 302/2/3 301/2/3 300/2/3
f 303/2/3 301/2/3 302/2/3
f 307/1/3 305/1/3 304/1/3
f 308/1/3 305/1/3 307/1/3
f 310/1/3 307/1/3 306/1/3
f 311/1/3 309/1/3 308/1/3
f 312/1/3 309/1/3 311/1/3
f 313/1/3 310/1/3 306/1/3
f 316/1/3 313/1/3 306/1/3
f 317/1/3 313/1/3 316/1/3
f 318/1/3 315/1/3 314/1/3
f 319/1/3 315/1/3 318/1/3
f 320/1/3 318/1/3 317/1/3
f 321/1/3 318/1/3 320/1/3
f 325/1/3 323/1/3 322/1/3
f 326/1/3 323/1/3 325/1/3
f 329/1/3 325/1/3 324/1/3
f 330/1/3 325/1/3 329/1/3
f 331/1/3 327/1/3 326/1/3
f 332/1/3 327/1/3 331/1/3
f 334/1/3 333/1/3 332/1/3
f 335/1/3 333/1/3 334/1/3
f 338/1/3 329/1/3 328/1/3
f 339/1/3 329/1/3 338/1/3
f 342/1/3 337/1/3 336/1/3
f 343/1/3 337/1/3 342/1/3
f 344/1/3 340/1/3 339/1/3
f 345/1/3 340/1/3 344/1/3
f 346/1/3 342/1/3 341/1/3
f 347/1/3 342/1/3 346/1/3
f 348/1/3 346/1/3 345/1/3
f 349/1/3 346/1/3 348/1/3
f 353/1/3 351/1/3 350/1/3
f 354/1/3 351/1/3 353/1/3
f 357/1/3 353/1/3 352/1/3
f 358/1/3 353/1/3 357/1/3
f 359/1/3 355/1/3 354/1/3
f 360/1/3 355/1/3 359/1/3
f 363/1/3 357/1/3 356/1/3
f 364/1/3 357/1/3 363/1/3
f 365/1/3 361/1/3 360/1/3
f 366/1/3 361/1/3 365/1/3
f 368/1/3 367/1/3 366/1/3
f 369/1/3 367/1/3 368/1/3
f 372/1/3 363/1/3 362/1/3
f 373/1/3 363/1/3 372/1/3
f 376/1/3 371/1/3 370/1/3
f 377/1/3 371/1/3 376/1/3
f 378/1/3 374/1/3 373/1/3
f 379/1/3 374/1/3 378/1/3
f 382/1/3 376/1/3 375/1/3
f 383/1/3 376/1/3 382/1/3
f 384/1/3 380/1/3 379/1/3
f 385/1/3 380/1/3 384/1/3
f 386/1/3 382/1/3 381/1/3
f 387/1/3 382/1/3 386/1/3
f 388/1/3 386/1/3 385/1/3
f 389/1/3 386/1/3 388/1/3
f 390/1/4 391/1/4 393/1/4
f 393/1/4 391/1/4 394/1/4
f 392/1/4 393/1/4 397/1/4
f 397/1/4 393/1/4 398/1/4
f 394/1/4 395/1/4 399/1/4
f 396/1/4 397/1/4 402/1/4
f 402/1/4 397/1/4 403/1/4
f 399/1/4 400/1/4 404/1/4
f 394/1/4 399/1/4 404/1/4
f 404/1/4 400/1/4 405/1/4
f 405/1/4 406/1/4 407/1/4
f 407/1/4 406/1/4 408/1/4
f 401/1/4 402/1/4 411/1/4
f 411/1/4 402/1/4 412/1/4
f 409/1/4 410/1/4 415/1/4
f 415/1/4 410/1/4 416/1/4
f 412/1/4 413/1/4 417/1/4
f 417/1/4 413/1/4 418/1/4
f 414/1/4 415/1/4 421/1/4
f 421/1/4 415/1/4 422/1/4
f 418/1/4 419/1/4 423/1/4
f 423/1/4 419/1/4 424/1/4
f 420/1/4 421/1/4 425/1/4
f 425/1/4 421/1/4 426/1/4
f 424/1/4 425/1/4 427/1/4
f 427/1/4 425/1/4 428/1/4
f 429/1/4 430/1/4 432/1/4
f 432/1/4 430/1/4 433/1/4
f 431/1/4 432/1/4 435/1/4
f 435/1/4 432/1/4 436/1/4
f 437/1/4 438/1/4 439/1/4
f 439/1/4 438/1/4 440/1/4
f 434/1/4 435/1/4 443/1/4
f 443/1/4 435/1/4 444/1/4
f 441/1/4 442/1/4 447/1/4
f 447/1/4 442/1/4 448/1/4
f 444/1/4 445/1/4 449/1/4
f 449/1/4 445/1/4 450/1/4
f 446/1/4 447/1/4 451/1/4
f 451/1/4 447/1/4 452/1/4
f 450/1/4 451/1/4 453/1/4
f 453/1/4 451/1/4 454/1/4
f 455/1/4 456/1/4 458/1/4
f 458/1/4 456/1/4 459/1/4
f 457/1/4 458/1/4 461/1/4
f 459/1/4 460/1/4 462/1/4
f 462/1/4 460/1/4 463/1/4
f 457/1/4 461/1/4 464/1/4
f 457/1/4 464/1/4 467/1/4
f 467/1/4 464/1/4 468/1/4
f 465/1/4 466/1/4 469/1/4
f 469/1/4 466/1/4 470/1/4
f 468/1/4 469/1/4 471/1/4
f 471/1/4 469/1/4 472/1/4
f 473/2/4 474/2/4 475/2/4
f 475/2/4 474/2/4 476/2/4
f 477/2/4 478/2/4 479/2/4
f 479/2/4 478/2/4 480/2/4
f 481/1/4 482/1/4 484/1/4
f 484/1/4 482/1/4 485/1/4
f 483/1/4 484/1/4 488/1/4
f 485/1/4 486/1/4 488/1/4
f 484/1/4 485/1/4 488/1/4
f 488/1/4 486/1/4 489/1/4
f 487/1/4 488/1/4 492/1/4
f 489/1/4 490/1/4 492/1/4
f 488/1/4 489/1/4 492/1/4
f 492/1/4 490/1/4 493/1/4
f 491/1/4 492/1/4 495/1/4
f 493/1/4 494/1/4 495/1/4
f 492/1/4 493/1/4 495/1/4
f 495/1/4 494/1/4 496/1/4
f 496/1/4 494/1/4 497/1/4
f 491/1/4 495/1/4 498/1/4
f 495/3/4 496/3/4 498/3/4
f 498/3/4 496/3/4 499/3/4
f 491/1/4 498/1/4 501/1/4
f 499/1/4 500/1/4 501/1/4
f 498/1/4 499/1/4 501/1/4
f 501/1/4 500/1/4 502/1/4
f 502/1/4 500/1/4 503/1/4
f 503/1/4 500/1/4 504/1/4
f 502/1/4 503/1/4 505/1/4
f 505/1/4 503/1/4 506/1/4
f 506/1/4 503/1/4 507/1/4
f 507/1/4 503/1/4 508/1/4
f 506/1/4 507/1/4 509/1/4
f 509/1/4 507/1/4 510/1/4
f 510/1/4 507/1/4 511/1/4
f 511/1/4 507/1/4 512/1/4
f 510/1/4 511/1/4 513/1/4
f 513/1/4 511/1/4 514/1/4
f 517/1/5 516/1/5 515/1/5
f 518/1/5 516/1/5 517/1/5
f 521/1/5 520/1/5 519/1/5
f 522/1/5 520/1/5 521/1/5
f 527/1/5 524/1/5 523/1/5
f 528/1/5 524/1/5 527/1/5
f 529/1/5 526/1/5 525/1/5
f 530/1/5 526/1/5 529/1/5
f 531/1/5 529/1/5 528/1/5
f 532/1/5 529/1/5 531/1/5
f 536/1/5 534/1/5 533/1/5
f 537/1/5 534/1/5 536/1/5
f 539/1/5 536/1/5 535/1/5
f 540/1/5 536/1/5 539/1/5
f 541/1/5 538/1/5 537/1/5
f 542/1/5 538/1/5 541/1/5
f 547/1/5 544/1/5 543/1/5
f 548/1/5 544/1/5 547/1/5
f 551/1/5 546/1/5 545/1/5
f 552/1/5 546/1/5 551/1/5
f 553/1/5 549/1/5 548/1/5
f 554/1/5 549/1/5 553/1/5
f 555/1/5 551/1/5 550/1/5
f 556/1/5 551/1/5 555/1/5
f 557/1/5 555/1/5 554/1/5
f 558/1/5 555/1/5 557/1/5
f 562/1/5 560/1/5 559/1/5
f 563/1/5 560/1/5 562/1/5
f 566/1/5 562/1/5 561/1/5
f 567/1/5 562/1/5 566/1/5
f 568/1/5 564/1/5 563/1/5
f 569/1/5 564/1/5 568/1/5
f 571/1/5 566/1/5 565/1/5
f 572/1/5 566/1/5 571/1/5
f 573/1/5 570/1/5 569/1/5
f 574/1/5 570/1/5 573/1/5
f 579/1/5 576/1/5 575/1/5
f 580/1/5 576/1/5 579/1/5
f 583/1/5 578/1/5 577/1/5
f 584/1/5 578/1/5 583/1/5
f 585/1/5 581/1/5 580/1/5
f 586/1/5 581/1/5 585/1/5
f 589/1/5 583/1/5 582/1/5
f 590/1/5 583/1/5 589/1/5
f 591/1/5 587/1/5 586/1/5
f 592/1/5 587/1/5 591/1/5
f 595/1/5 589/1/5 588/1/5
f 596/1/5 589/1/5 595/1/5
f 597/1/5 593/1/5 592/1/5
f 598/2/5 594/2/5 593/2/5
f 598/1/5 593/1/5 597/1/5
f 599/1/5 595/1/5 594/1/5
f 599/2/5 594/2/5 598/2/5
f 600/1/5 595/1/5 599/1/5
f 602/2/5 598/2/5 597/2/5
f 603/3/5 599/3/5 598/3/5
f 603/2/5 598/2/5 602/2/5
f 604/3/5 599/3/5 603/3/5
f 605/3/5 599/3/5 604/3/5
f 606/2/5 600/2/5 599/2/5
f 606/3/5 599/3/5 605/3/5
f 607/2/5 600/2/5 606/2/5
f 609/2/5 602/2/5 601/2/5
f 609/2/5 603/2/5 602/2/5
f 609/2/5 604/2/5 603/2/5
f 610/3/5 605/3/5 604/3/5
f 610/2/5 604/2/5 609/2/5
f 611/2/5 607/2/5 606/2/5
f 611/3/5 605/3/5 610/3/5
f 611/2/5 608/2/5 607/2/5
f 611/2/5 606/2/5 605/2/5
f 612/2/5 608/2/5 611/2/5
f 613/3/5 610/3/5 609/3/5
f 613/3/5 611/3/5 610/3/5
f 613/3/5 612/3/5 611/3/5
f 614/3/5 612/3/5 613/3/5
f 615/3/5 612/3/5 614/3/5
f 616/3/5 612/3/5 615/3/5
f 617/2/5 614/2/5 613/2/5
f 618/2/5 614/2/5 617/2/5
f 619/2/5 614/2/5 618/2/5
f 620/3/5 615/3/5 614/3/5
f 620/2/5 614/2/5 619/2/5
f 621/2/5 616/2/5 615/2/5
f 621/3/5 615/3/5 620/3/5
f 622/2/5 616/2/5 621/2/5
f 623/2/5 616/2/5 622/2/5
f 624/2/5 616/2/5 623/2/5
f 625/2/5 619/2/5 618/2/5
f 626/3/5 620/3/5 619/3/5
f 626/2/5 619/2/5 625/2/5
f 626/3/5 621/3/5 620/3/5
f 626/3/5 622/3/5 621/3/5
f 627/2/5 623/2/5 622/2/5
f 627/3/5 622/3/5 626/3/5
f 628/2/5 623/2/5 627/2/5
f 630/1/5 626/1/5 625/1/5
f 631/2/5 627/2/5 626/2/5
f 631/1/5 626/1/5 630/1/5
f 632/1/5 628/1/5 627/1/5
f 632/2/5 627/2/5 631/2/5
f 633/1/5 628/1/5 632/1/5
f 636/1/5 630/1/5 629/1/5
f 637/1/5 630/1/5 636/1/5
f 638/1/5 634/1/5 633/1/5
f 639/1/5 634/1/5 638/1/5
f 642/1/5 636/1/5 635/1/5
f 643/1/5 636/1/5 642/1/5
f 644/1/5 640/1/5 639/1/5
f 645/1/5 640/1/5 644/1/5
f 647/1/5 642/1/5 641/1/5
f 648/1/5 642/1/5 647/1/5
f 649/1/5 646/1/5 645/1/5
f 650/1/5 646/1/5 649/1/5
f 651/1/6 652/1/6 657/1/6
f 657/1/6 652/1/6 658/1/6
f 655/1/6 656/1/6 661/1/6
f 661/1/6 656/1/6 662/1/6
f 658/1/6 659/1/6 663/1/6
f 663/1/6 659/1/6 664/1/6
f 653/3/6 654/3/6 665/3/6
f 665/3/6 654/3/6 666/3/6
f 660/1/6 661/1/6 668/1/6
f 668/1/6 661/1/6 669/1/6
f 664/1/6 659/1/6 670/1/6
f 670/1/6 659/1/6 671/1/6
f 653/3/6 665/3/6 672/3/6
f 665/2/6 666/2/6 673/2/6
f 672/3/6 665/3/6 673/3/6
f 666/3/6 654/3/6 674/3/6
f 673/2/6 666/2/6 674/2/6
f 674/3/6 654/3/6 675/3/6
f 667/1/6 668/1/6 676/1/6
f 676/1/6 668/1/6 677/1/6
f 671/1/6 672/1/6 678/1/6
f 672/2/6 673/2/6 679/2/6
f 678/1/6 672/1/6 679/1/6
f 674/2/6 675/2/6 679/2/6
f 673/2/6 674/2/6 679/2/6
f 675/1/6 676/1/6 680/1/6
f 679/2/6 675/2/6 680/2/6
f 680/1/6 676/1/6 681/1/6
f 678/2/6 679/2/6 683/2/6
f 679/3/6 680/3/6 684/3/6
f 683/2/6 679/2/6 684/2/6
f 684/3/6 680/3/6 685/3/6
f 685/3/6 680/3/6 686/3/6
f 680/2/6 681/2/6 687/2/6
f 686/3/6 680/3/6 687/3/6
f 687/2/6 681/2/6 688/2/6
f 682/2/6 683/2/6 690/2/6
f 683/2/6 684/2/6 690/2/6
f 684/2/6 685/2/6 690/2/6
f 685/3/6 686/3/6 691/3/6
f 690/2/6 685/2/6 691/2/6
f 687/2/6 688/2/6 692/2/6
f 691/3/6 686/3/6 692/3/6
f 688/2/6 689/2/6 692/2/6
f 686/2/6 687/2/6 692/2/6
f 692/2/6 689/2/6 693/2/6
f 690/3/6 691/3/6 694/3/6
f 691/3/6 692/3/6 694/3/6
f 692/3/6 693/3/6 694/3/6
f 694/3/6 693/3/6 695/3/6
f 695/3/6 693/3/6 696/3/6
f 696/3/6 693/3/6 697/3/6
f 694/2/6 695/2/6 698/2/6
f 698/2/6 695/2/6 699/2/6
f 699/2/6 695/2/6 700/2/6
f 695/3/6 696/3/6 701/3/6
f 700/2/6 695/2/6 701/2/6
f 696/2/6 697/2/6 702/2/6
f 701/3/6 696/3/6 702/3/6
f 702/2/6 697/2/6 703/2/6
f 703/2/6 697/2/6 704/2/6
f 704/2/6 697/2/6 705/2/6
f 699/2/6 700/2/6 706/2/6
f 700/3/6 701/3/6 707/3/6
f 706/2/6 700/2/6 707/2/6
f 701/3/6 702/3/6 707/3/6
f 702/3/6 703/3/6 707/3/6
f 703/2/6 704/2/6 708/2/6
f 707/3/6 703/3/6 708/3/6
f 708/2/6 704/2/6 709/2/6
f 706/1/6 707/1/6 711/1/6
f 707/2/6 708/2/6 712/2/6
f 711/1/6 707/1/6 712/1/6
f 712/2/6 708/2/6 713/2/6
f 713/2/6 708/2/6 714/2/6
f 708/1/6 709/1/6 715/1/6
f 714/2/6 708/2/6 715/2/6
f 715/1/6 709/1/6 716/1/6
f 710/1/6 711/1/6 719/1/6
f 719/1/6 711/1/6 720/1/6
f 712/3/6 713/3/6 721/3/6
f 713/2/6 714/2/6 721/2/6
f 714/3/6 715/3/6 722/3/6
f 721/2/6 714/2/6 722/2/6
f 716/1/6 717/1/6 723/1/6
f 723/1/6 717/1/6 724/1/6
f 718/1/6 719/1/6 727/1/6
f 727/1/6 719/1/6 728/1/6
f 724/1/6 725/1/6 729/1/6
f 729/1/6 725/1/6 730/1/6
f 726/1/6 727/1/6 732/1/6
f 732/1/6 727/1/6 733/1/6
f 721/3/6 722/3/6 734/3/6
f 712/3/6 721/3/6 734/3/6
f 722/3/6 715/3/6 735/3/6
f 734/3/6 722/3/6 735/3/6
f 730/1/6 731/1/6 736/1/6
f 736/1/6 731/1/6 737/1/6
f 738/1/6 739/1/6 742/1/6
f 742/1/6 739/1/6 743/1/6
f 740/1/6 741/1/6 745/1/6
f 745/1/6 741/1/6 746/1/6
f 744/1/6 745/1/6 750/1/6
f 750/1/6 745/1/6 751/1/6
f 747/1/6 748/1/6 752/1/6
f 752/1/6 748/1/6 753/1/6
f 749/1/6 750/1/6 754/1/6
f 754/1/6 750/1/6 755/1/6
f 756/1/6 757/1/6 761/1/6
f 761/1/6 757/1/6 762/1/6
f 758/1/6 759/1/6 763/1/6
f 763/1/6 759/1/6 764/1/6
f 760/1/6 761/1/6 767/1/6
f 767/1/6 761/1/6 768/1/6
f 764/1/6 765/1/6 769/1/6
f 769/1/6 765/1/6 770/1/6
f 766/1/6 767/1/6 772/1/6
f 772/1/6 767/1/6 773/1/6
f 770/1/6 771/1/6 774/1/6
f 774/1/6 771/1/6 775/1/6
f 776/1/6 777/1/6 780/1/6
f 780/1/6 777/1/6 781/1/6
f 778/1/6 779/1/6 784/1/6
f 784/1/6 779/1/6 785/1/6
f 781/1/6 782/1/6 786/1/6
f 786/1/6 782/1/6 787/1/6
f 783/1/6 784/1/6 788/1/6
f 788/1/6 784/1/6 789/1/6
f 790/1/6 791/1/6 795/1/6
f 795/1/6 791/1/6 796/1/6
f 792/1/6 793/1/6 797/1/6
f 797/1/6 793/1/6 798/1/6
f 794/1/6 795/1/6 800/1/6
f 800/1/6 795/1/6 801/1/6
f 798/1/6 799/1/6 802/1/6
f 802/1/6 799/1/6 803/1/6
f 804/1/6 805/1/6 808/1/6
f 808/1/6 805/1/6 809/1/6
f 806/1/6 807/1/6 810/1/6
f 810/1/6 807/1/6 811/1/6
f 812/1/6 813/1/6 816/1/6
f 816/1/6 813/1/6 817/1/6
f 814/1/6 815/1/6 818/1/6
f 818/1/6 815/1/6 819/1/6
