%YAML 1.1
%TAG !u! tag:unity3d.com,2011:
--- !u!1001 &3265428782581019633
PrefabInstance:
  m_ObjectHideFlags: 0
  serializedVersion: 2
  m_Modification:
    m_TransformParent: {fileID: 0}
    m_Modifications:
    - target: {fileID: 177315922762010854, guid: 1c1680eb882e9234eb590eb0154c1685,
        type: 3}
      propertyPath: m_Name
      value: Tree_1 Stones 3
      objectReference: {fileID: 0}
    - target: {fileID: 750622186464521000, guid: 1c1680eb882e9234eb590eb0154c1685,
        type: 3}
      propertyPath: m_Mesh
      value: 
      objectReference: {fileID: -2432090755550338912, guid: 44115a230afd24e46b6556cd4a5344da,
        type: 3}
    - target: {fileID: 877285719132561216, guid: 1c1680eb882e9234eb590eb0154c1685,
        type: 3}
      propertyPath: m_LocalPosition.y
      value: 0.03
      objectReference: {fileID: 0}
    - target: {fileID: 2100947432783579311, guid: 1c1680eb882e9234eb590eb0154c1685,
        type: 3}
      propertyPath: m_Materials.Array.data[0]
      value: 
      objectReference: {fileID: 6842584044724275946, guid: 44115a230afd24e46b6556cd4a5344da,
        type: 3}
    - target: {fileID: 2914843019590977078, guid: 1c1680eb882e9234eb590eb0154c1685,
        type: 3}
      propertyPath: m_RootOrder
      value: 0
      objectReference: {fileID: 0}
    - target: {fileID: 2914843019590977078, guid: 1c1680eb882e9234eb590eb0154c1685,
        type: 3}
      propertyPath: m_LocalPosition.x
      value: -0.49548525
      objectReference: {fileID: 0}
    - target: {fileID: 2914843019590977078, guid: 1c1680eb882e9234eb590eb0154c1685,
        type: 3}
      propertyPath: m_LocalPosition.y
      value: 0.7
      objectReference: {fileID: 0}
    - target: {fileID: 2914843019590977078, guid: 1c1680eb882e9234eb590eb0154c1685,
        type: 3}
      propertyPath: m_LocalPosition.z
      value: 0.31572947
      objectReference: {fileID: 0}
    - target: {fileID: 2914843019590977078, guid: 1c1680eb882e9234eb590eb0154c1685,
        type: 3}
      propertyPath: m_LocalRotation.w
      value: 1
      objectReference: {fileID: 0}
    - target: {fileID: 2914843019590977078, guid: 1c1680eb882e9234eb590eb0154c1685,
        type: 3}
      propertyPath: m_LocalRotation.x
      value: 0
      objectReference: {fileID: 0}
    - target: {fileID: 2914843019590977078, guid: 1c1680eb882e9234eb590eb0154c1685,
        type: 3}
      propertyPath: m_LocalRotation.y
      value: 0
      objectReference: {fileID: 0}
    - target: {fileID: 2914843019590977078, guid: 1c1680eb882e9234eb590eb0154c1685,
        type: 3}
      propertyPath: m_LocalRotation.z
      value: 0
      objectReference: {fileID: 0}
    - target: {fileID: 2914843019590977078, guid: 1c1680eb882e9234eb590eb0154c1685,
        type: 3}
      propertyPath: m_LocalEulerAnglesHint.x
      value: 0
      objectReference: {fileID: 0}
    - target: {fileID: 2914843019590977078, guid: 1c1680eb882e9234eb590eb0154c1685,
        type: 3}
      propertyPath: m_LocalEulerAnglesHint.y
      value: 0
      objectReference: {fileID: 0}
    - target: {fileID: 2914843019590977078, guid: 1c1680eb882e9234eb590eb0154c1685,
        type: 3}
      propertyPath: m_LocalEulerAnglesHint.z
      value: 0
      objectReference: {fileID: 0}
    - target: {fileID: 3353424051263295546, guid: 1c1680eb882e9234eb590eb0154c1685,
        type: 3}
      propertyPath: m_Mesh
      value: 
      objectReference: {fileID: -2432090755550338912, guid: 44115a230afd24e46b6556cd4a5344da,
        type: 3}
    - target: {fileID: 6171734428544063725, guid: 1c1680eb882e9234eb590eb0154c1685,
        type: 3}
      propertyPath: m_LocalPosition.y
      value: 0.219
      objectReference: {fileID: 0}
    m_RemovedComponents: []
  m_SourcePrefab: {fileID: 100100000, guid: 1c1680eb882e9234eb590eb0154c1685, type: 3}
