%YAML 1.1
%TAG !u! tag:unity3d.com,2011:
--- !u!1001 &7848292673221589703
PrefabInstance:
  m_ObjectHideFlags: 0
  serializedVersion: 2
  m_Modification:
    m_TransformParent: {fileID: 0}
    m_Modifications:
    - target: {fileID: 4128916136994432952, guid: 40c4ebbda1ff0124289d4ece6faeb46c,
        type: 3}
      propertyPath: InitialModule.startColor.maxColor.b
      value: 0.14901961
      objectReference: {fileID: 0}
    - target: {fileID: 4128916136994432952, guid: 40c4ebbda1ff0124289d4ece6faeb46c,
        type: 3}
      propertyPath: InitialModule.startColor.maxColor.g
      value: 0.2392157
      objectReference: {fileID: 0}
    - target: {fileID: 4128916136994432952, guid: 40c4ebbda1ff0124289d4ece6faeb46c,
        type: 3}
      propertyPath: InitialModule.startColor.maxColor.r
      value: 0.2784314
      objectReference: {fileID: 0}
    - target: {fileID: 4128916137008603690, guid: 40c4ebbda1ff0124289d4ece6faeb46c,
        type: 3}
      propertyPath: m_LocalPosition.x
      value: 0
      objectReference: {fileID: 0}
    - target: {fileID: 4128916137008603690, guid: 40c4ebbda1ff0124289d4ece6faeb46c,
        type: 3}
      propertyPath: m_LocalPosition.y
      value: 0.114
      objectReference: {fileID: 0}
    - target: {fileID: 4128916137008603690, guid: 40c4ebbda1ff0124289d4ece6faeb46c,
        type: 3}
      propertyPath: m_LocalPosition.z
      value: 0
      objectReference: {fileID: 0}
    - target: {fileID: 4783805711767350013, guid: 40c4ebbda1ff0124289d4ece6faeb46c,
        type: 3}
      propertyPath: m_Mesh
      value: 
      objectReference: {fileID: -2432090755550338912, guid: fc1f27f4244d261478545e772ee93167,
        type: 3}
    - target: {fileID: 4943024752992402673, guid: 40c4ebbda1ff0124289d4ece6faeb46c,
        type: 3}
      propertyPath: m_RootOrder
      value: 0
      objectReference: {fileID: 0}
    - target: {fileID: 4943024752992402673, guid: 40c4ebbda1ff0124289d4ece6faeb46c,
        type: 3}
      propertyPath: m_LocalPosition.x
      value: -0.57987946
      objectReference: {fileID: 0}
    - target: {fileID: 4943024752992402673, guid: 40c4ebbda1ff0124289d4ece6faeb46c,
        type: 3}
      propertyPath: m_LocalPosition.y
      value: 0.7
      objectReference: {fileID: 0}
    - target: {fileID: 4943024752992402673, guid: 40c4ebbda1ff0124289d4ece6faeb46c,
        type: 3}
      propertyPath: m_LocalPosition.z
      value: 0.60640925
      objectReference: {fileID: 0}
    - target: {fileID: 4943024752992402673, guid: 40c4ebbda1ff0124289d4ece6faeb46c,
        type: 3}
      propertyPath: m_LocalRotation.w
      value: 1
      objectReference: {fileID: 0}
    - target: {fileID: 4943024752992402673, guid: 40c4ebbda1ff0124289d4ece6faeb46c,
        type: 3}
      propertyPath: m_LocalRotation.x
      value: 0
      objectReference: {fileID: 0}
    - target: {fileID: 4943024752992402673, guid: 40c4ebbda1ff0124289d4ece6faeb46c,
        type: 3}
      propertyPath: m_LocalRotation.y
      value: 0
      objectReference: {fileID: 0}
    - target: {fileID: 4943024752992402673, guid: 40c4ebbda1ff0124289d4ece6faeb46c,
        type: 3}
      propertyPath: m_LocalRotation.z
      value: 0
      objectReference: {fileID: 0}
    - target: {fileID: 4943024752992402673, guid: 40c4ebbda1ff0124289d4ece6faeb46c,
        type: 3}
      propertyPath: m_LocalEulerAnglesHint.x
      value: 0
      objectReference: {fileID: 0}
    - target: {fileID: 4943024752992402673, guid: 40c4ebbda1ff0124289d4ece6faeb46c,
        type: 3}
      propertyPath: m_LocalEulerAnglesHint.y
      value: 0
      objectReference: {fileID: 0}
    - target: {fileID: 4943024752992402673, guid: 40c4ebbda1ff0124289d4ece6faeb46c,
        type: 3}
      propertyPath: m_LocalEulerAnglesHint.z
      value: 0
      objectReference: {fileID: 0}
    - target: {fileID: 6973263461430535559, guid: 40c4ebbda1ff0124289d4ece6faeb46c,
        type: 3}
      propertyPath: m_LocalPosition.x
      value: 0
      objectReference: {fileID: 0}
    - target: {fileID: 6973263461430535559, guid: 40c4ebbda1ff0124289d4ece6faeb46c,
        type: 3}
      propertyPath: m_LocalPosition.y
      value: 0.03
      objectReference: {fileID: 0}
    - target: {fileID: 6973263461430535559, guid: 40c4ebbda1ff0124289d4ece6faeb46c,
        type: 3}
      propertyPath: m_LocalPosition.z
      value: 0
      objectReference: {fileID: 0}
    - target: {fileID: 7385906122098659823, guid: 40c4ebbda1ff0124289d4ece6faeb46c,
        type: 3}
      propertyPath: m_Mesh
      value: 
      objectReference: {fileID: -2432090755550338912, guid: fc1f27f4244d261478545e772ee93167,
        type: 3}
    - target: {fileID: 7971177271776799265, guid: 40c4ebbda1ff0124289d4ece6faeb46c,
        type: 3}
      propertyPath: m_Name
      value: Tree_1 Stones 1
      objectReference: {fileID: 0}
    - target: {fileID: 8018738512873979535, guid: 40c4ebbda1ff0124289d4ece6faeb46c,
        type: 3}
      propertyPath: resourceType
      value: 1
      objectReference: {fileID: 0}
    - target: {fileID: 8197303481157677672, guid: 40c4ebbda1ff0124289d4ece6faeb46c,
        type: 3}
      propertyPath: m_Materials.Array.data[0]
      value: 
      objectReference: {fileID: -8469494145858465668, guid: fc1f27f4244d261478545e772ee93167,
        type: 3}
    m_RemovedComponents: []
  m_SourcePrefab: {fileID: 100100000, guid: 40c4ebbda1ff0124289d4ece6faeb46c, type: 3}
