# MagicaVoxel @ Ephtracy

# group
o 

# material
mtllib grass5.mtl
usemtl palette

# normals
vn -1 0 0
vn 1 0 0
vn 0 0 1
vn 0 0 -1
vn 0 -1 0
vn 0 1 0

# texcoords
vt 0.591797 0.5

# verts
v -0.5 0 -0.6
v -0.5 0 -0.8
v -0.5 0.1 -0.6
v -0.5 0.1 -0.8
v -0.3 0 -0.5
v -0.3 0 -0.6
v -0.3 0.1 -0.5
v -0.3 0.1 -0.6
v -0.3 0 -0.7
v -0.3 0 -0.8
v -0.3 0.1 -0.7
v -0.3 0.1 -0.8
v -0.2 0 -0.5
v -0.2 0 -0.7
v -0.2 0.1 -0.5
v -0.2 0.1 -0.7
v -0.3 0 -0.5
v -0.3 0.1 -0.5
v -0.2 0 -0.5
v -0.2 0.1 -0.5
v -0.5 0 -0.6
v -0.5 0.1 -0.6
v -0.3 0 -0.6
v -0.3 0.1 -0.6
v -0.3 0 -0.7
v -0.3 0.1 -0.7
v -0.2 0 -0.7
v -0.2 0.1 -0.7
v -0.5 0 -0.8
v -0.5 0.1 -0.8
v -0.3 0 -0.8
v -0.3 0.1 -0.8
v -0.3 0 -0.5
v -0.2 0 -0.5
v -0.5 0 -0.6
v -0.3 0 -0.6
v -0.3 0 -0.7
v -0.2 0 -0.7
v -0.5 0 -0.8
v -0.3 0 -0.8
v -0.3 0.1 -0.5
v -0.2 0.1 -0.5
v -0.5 0.1 -0.6
v -0.3 0.1 -0.6
v -0.3 0.1 -0.7
v -0.2 0.1 -0.7
v -0.5 0.1 -0.8
v -0.3 0.1 -0.8

# faces
f 3/1/1 2/1/1 1/1/1
f 4/1/1 2/1/1 3/1/1
f 7/1/1 6/1/1 5/1/1
f 8/1/1 6/1/1 7/1/1
f 9/1/2 10/1/2 11/1/2
f 11/1/2 10/1/2 12/1/2
f 13/1/2 14/1/2 15/1/2
f 15/1/2 14/1/2 16/1/2
f 19/1/3 18/1/3 17/1/3
f 20/1/3 18/1/3 19/1/3
f 23/1/3 22/1/3 21/1/3
f 24/1/3 22/1/3 23/1/3
f 25/1/4 26/1/4 27/1/4
f 27/1/4 26/1/4 28/1/4
f 29/1/4 30/1/4 31/1/4
f 31/1/4 30/1/4 32/1/4
f 36/1/5 34/1/5 33/1/5
f 37/1/5 34/1/5 36/1/5
f 37/1/5 36/1/5 35/1/5
f 38/1/5 34/1/5 37/1/5
f 39/1/5 37/1/5 35/1/5
f 40/1/5 37/1/5 39/1/5
f 41/1/6 42/1/6 44/1/6
f 44/1/6 42/1/6 45/1/6
f 43/1/6 44/1/6 45/1/6
f 45/1/6 42/1/6 46/1/6
f 43/1/6 45/1/6 47/1/6
f 47/1/6 45/1/6 48/1/6
