# Blender v2.83.0 OBJ File: ''
# www.blender.org
mtllib stones5.mtl
o ObjObject.004
v -0.164282 0.100000 -0.042763
v -0.164282 0.000000 -0.142763
v -0.164282 0.000000 -0.042763
v -0.164282 0.100000 -0.142763
v -0.064282 0.100000 0.157237
v -0.064282 0.000000 -0.042763
v -0.064282 -0.000000 0.157237
v -0.064282 0.100000 -0.042763
v 0.035718 0.200000 0.057237
v 0.035718 0.100000 -0.142763
v 0.035718 0.100000 0.057237
v 0.035718 0.200000 -0.142763
v 0.135718 -0.000000 0.157237
v 0.135718 0.000000 -0.142763
v 0.135718 0.100000 0.157237
v 0.135718 0.100000 0.057237
v 0.135718 0.200000 0.057237
v 0.135718 0.200000 -0.142763
v 0.135718 -0.000000 0.157237
v -0.064282 0.100000 0.157237
v -0.064282 -0.000000 0.157237
v 0.135718 0.100000 0.157237
v 0.135718 0.100000 0.057237
v 0.035718 0.200000 0.057237
v 0.035718 0.100000 0.057237
v 0.135718 0.200000 0.057237
v -0.064282 0.000000 -0.042763
v -0.164282 0.100000 -0.042763
v -0.164282 0.000000 -0.042763
v -0.064282 0.100000 -0.042763
v -0.164282 0.000000 -0.142763
v -0.164282 0.100000 -0.142763
v 0.035718 0.100000 -0.142763
v 0.135718 0.000000 -0.142763
v 0.035718 0.200000 -0.142763
v 0.135718 0.200000 -0.142763
v -0.064282 0.000000 -0.042763
v 0.135718 -0.000000 0.157237
v -0.064282 -0.000000 0.157237
v -0.164282 0.000000 -0.142763
v -0.164282 0.000000 -0.042763
v 0.135718 0.000000 -0.142763
v -0.064282 0.100000 0.157237
v 0.135718 0.100000 0.157237
v 0.035718 0.100000 0.057237
v 0.135718 0.100000 0.057237
v -0.064282 0.100000 -0.042763
v -0.164282 0.100000 -0.042763
v -0.164282 0.100000 -0.142763
v 0.035718 0.100000 -0.142763
v 0.035718 0.200000 0.057237
v 0.135718 0.200000 0.057237
v 0.035718 0.200000 -0.142763
v 0.135718 0.200000 -0.142763
vt 0.994141 0.500000
vt 0.994141 0.500000
vt 0.994141 0.500000
vt 0.994141 0.500000
vt 0.994141 0.500000
vt 0.994141 0.500000
vt 0.994141 0.500000
vt 0.994141 0.500000
vt 0.994141 0.500000
vt 0.994141 0.500000
vt 0.994141 0.500000
vt 0.994141 0.500000
vt 0.994141 0.500000
vt 0.994141 0.500000
vt 0.994141 0.500000
vt 0.994141 0.500000
vt 0.994141 0.500000
vt 0.994141 0.500000
vt 0.994141 0.500000
vt 0.994141 0.500000
vt 0.994141 0.500000
vt 0.994141 0.500000
vt 0.994141 0.500000
vt 0.994141 0.500000
vt 0.994141 0.500000
vt 0.994141 0.500000
vt 0.994141 0.500000
vt 0.994141 0.500000
vt 0.994141 0.500000
vt 0.994141 0.500000
vt 0.994141 0.500000
vt 0.994141 0.500000
vt 0.994141 0.500000
vt 0.994141 0.500000
vt 0.994141 0.500000
vt 0.994141 0.500000
vt 0.994141 0.500000
vt 0.994141 0.500000
vt 0.994141 0.500000
vt 0.994141 0.500000
vt 0.994141 0.500000
vt 0.994141 0.500000
vt 0.994141 0.500000
vt 0.994141 0.500000
vt 0.994141 0.500000
vt 0.994141 0.500000
vt 0.994141 0.500000
vt 0.994141 0.500000
vt 0.994141 0.500000
vt 0.994141 0.500000
vt 0.994141 0.500000
vt 0.994141 0.500000
vt 0.994141 0.500000
vt 0.994141 0.500000
vn -1.0000 -0.0000 0.0000
vn 1.0000 0.0000 0.0000
vn 0.0000 -0.0000 1.0000
vn 0.0000 0.0000 -1.0000
vn 0.0000 -1.0000 -0.0000
vn -0.0000 1.0000 0.0000
usemtl palette.004
s 1
f 1/1/1 2/2/1 3/3/1
f 4/4/1 2/2/1 1/1/1
f 5/5/1 6/6/1 7/7/1
f 8/8/1 6/6/1 5/5/1
f 9/9/1 10/10/1 11/11/1
f 12/12/1 10/10/1 9/9/1
f 13/13/2 14/14/2 15/15/2
f 15/15/2 14/14/2 16/16/2
f 16/16/2 14/14/2 17/17/2
f 17/17/2 14/14/2 18/18/2
f 19/19/3 20/20/3 21/21/3
f 22/22/3 20/20/3 19/19/3
f 23/23/3 24/24/3 25/25/3
f 26/26/3 24/24/3 23/23/3
f 27/27/3 28/28/3 29/29/3
f 30/30/3 28/28/3 27/27/3
f 31/31/4 32/32/4 33/33/4
f 31/31/4 33/33/4 34/34/4
f 33/33/4 35/35/4 34/34/4
f 34/34/4 35/35/4 36/36/4
f 37/37/5 38/38/5 39/39/5
f 40/40/5 37/37/5 41/41/5
f 42/42/5 38/38/5 37/37/5
f 42/42/5 37/37/5 40/40/5
f 43/43/6 44/44/6 45/45/6
f 45/45/6 44/44/6 46/46/6
f 43/43/6 45/45/6 47/47/6
f 48/48/6 47/47/6 49/49/6
f 47/47/6 45/45/6 50/50/6
f 49/49/6 47/47/6 50/50/6
f 51/51/6 52/52/6 53/53/6
f 53/53/6 52/52/6 54/54/6
