# Blender v2.83.0 OBJ File: ''
# www.blender.org
mtllib stones1.mtl
o ObjObject
v -0.188098 0.100000 0.098949
v -0.188098 -0.000000 -0.001051
v -0.188098 -0.000000 0.098949
v -0.188098 0.100000 -0.001051
v -0.088098 0.100000 -0.001051
v -0.088098 -0.000000 -0.201051
v -0.088098 -0.000000 -0.001051
v -0.088098 0.100000 -0.101051
v -0.088098 0.100000 -0.201051
v -0.088098 0.200000 0.098949
v -0.088098 0.100000 0.098949
v -0.088098 0.200000 -0.101051
v 0.011902 0.100000 0.198949
v 0.011902 -0.000000 0.098949
v 0.011902 -0.000000 0.198949
v 0.011902 0.100000 0.098949
v 0.111902 -0.000000 0.198949
v 0.111902 -0.000000 0.098949
v 0.111902 0.100000 0.198949
v 0.111902 0.100000 0.098949
v 0.111902 -0.000000 -0.001051
v 0.111902 -0.000000 -0.201051
v 0.111902 0.100000 -0.001051
v 0.111902 0.100000 -0.101051
v 0.111902 0.100000 -0.201051
v 0.111902 0.200000 0.098949
v 0.111902 0.200000 -0.101051
v 0.211902 -0.000000 0.098949
v 0.211902 -0.000000 -0.001051
v 0.211902 0.100000 0.098949
v 0.211902 0.100000 -0.001051
v 0.111902 -0.000000 0.198949
v 0.011902 0.100000 0.198949
v 0.011902 -0.000000 0.198949
v 0.111902 0.100000 0.198949
v -0.088098 0.100000 0.098949
v -0.188098 0.100000 0.098949
v -0.188098 -0.000000 0.098949
v 0.011902 -0.000000 0.098949
v -0.088098 0.200000 0.098949
v 0.011902 0.100000 0.098949
v 0.111902 0.100000 0.098949
v 0.111902 0.200000 0.098949
v 0.211902 -0.000000 0.098949
v 0.111902 -0.000000 0.098949
v 0.211902 0.100000 0.098949
v -0.188098 -0.000000 -0.001051
v -0.188098 0.100000 -0.001051
v -0.088098 -0.000000 -0.001051
v -0.088098 0.100000 -0.001051
v 0.111902 -0.000000 -0.001051
v 0.111902 0.100000 -0.001051
v 0.211902 -0.000000 -0.001051
v 0.211902 0.100000 -0.001051
v -0.088098 0.100000 -0.101051
v -0.088098 0.200000 -0.101051
v 0.111902 0.100000 -0.101051
v 0.111902 0.200000 -0.101051
v -0.088098 -0.000000 -0.201051
v -0.088098 0.100000 -0.201051
v 0.111902 -0.000000 -0.201051
v 0.111902 0.100000 -0.201051
v 0.011902 -0.000000 0.098949
v 0.111902 -0.000000 0.198949
v 0.011902 -0.000000 0.198949
v 0.111902 -0.000000 0.098949
v -0.188098 -0.000000 -0.001051
v -0.188098 -0.000000 0.098949
v 0.211902 -0.000000 0.098949
v -0.088098 -0.000000 -0.001051
v 0.111902 -0.000000 -0.001051
v 0.211902 -0.000000 -0.001051
v -0.088098 -0.000000 -0.201051
v 0.111902 -0.000000 -0.201051
v 0.011902 0.100000 0.198949
v 0.111902 0.100000 0.198949
v 0.011902 0.100000 0.098949
v 0.111902 0.100000 0.098949
v -0.188098 0.100000 0.098949
v -0.088098 0.100000 0.098949
v -0.188098 0.100000 -0.001051
v -0.088098 0.100000 -0.001051
v 0.211902 0.100000 0.098949
v 0.111902 0.100000 -0.001051
v 0.211902 0.100000 -0.001051
v -0.088098 0.100000 -0.101051
v 0.111902 0.100000 -0.101051
v -0.088098 0.100000 -0.201051
v 0.111902 0.100000 -0.201051
v -0.088098 0.200000 0.098949
v 0.111902 0.200000 0.098949
v -0.088098 0.200000 -0.101051
v 0.111902 0.200000 -0.101051
vt 0.994141 0.500000
vt 0.994141 0.500000
vt 0.994141 0.500000
vt 0.994141 0.500000
vt 0.994141 0.500000
vt 0.994141 0.500000
vt 0.994141 0.500000
vt 0.994141 0.500000
vt 0.994141 0.500000
vt 0.994141 0.500000
vt 0.994141 0.500000
vt 0.994141 0.500000
vt 0.994141 0.500000
vt 0.994141 0.500000
vt 0.994141 0.500000
vt 0.994141 0.500000
vt 0.994141 0.500000
vt 0.994141 0.500000
vt 0.994141 0.500000
vt 0.994141 0.500000
vt 0.994141 0.500000
vt 0.994141 0.500000
vt 0.994141 0.500000
vt 0.994141 0.500000
vt 0.994141 0.500000
vt 0.994141 0.500000
vt 0.994141 0.500000
vt 0.994141 0.500000
vt 0.994141 0.500000
vt 0.994141 0.500000
vt 0.994141 0.500000
vt 0.994141 0.500000
vt 0.994141 0.500000
vt 0.994141 0.500000
vt 0.994141 0.500000
vt 0.994141 0.500000
vt 0.994141 0.500000
vt 0.994141 0.500000
vt 0.994141 0.500000
vt 0.994141 0.500000
vt 0.994141 0.500000
vt 0.994141 0.500000
vt 0.994141 0.500000
vt 0.994141 0.500000
vt 0.994141 0.500000
vt 0.994141 0.500000
vt 0.994141 0.500000
vt 0.994141 0.500000
vt 0.994141 0.500000
vt 0.994141 0.500000
vt 0.994141 0.500000
vt 0.994141 0.500000
vt 0.994141 0.500000
vt 0.994141 0.500000
vt 0.994141 0.500000
vt 0.994141 0.500000
vt 0.994141 0.500000
vt 0.994141 0.500000
vt 0.994141 0.500000
vt 0.994141 0.500000
vt 0.994141 0.500000
vt 0.994141 0.500000
vt 0.994141 0.500000
vt 0.994141 0.500000
vt 0.994141 0.500000
vt 0.994141 0.500000
vt 0.994141 0.500000
vt 0.994141 0.500000
vt 0.994141 0.500000
vt 0.994141 0.500000
vt 0.994141 0.500000
vt 0.994141 0.500000
vt 0.994141 0.500000
vt 0.994141 0.500000
vt 0.994141 0.500000
vt 0.994141 0.500000
vt 0.994141 0.500000
vt 0.994141 0.500000
vt 0.994141 0.500000
vt 0.994141 0.500000
vt 0.994141 0.500000
vt 0.994141 0.500000
vt 0.994141 0.500000
vt 0.994141 0.500000
vt 0.994141 0.500000
vt 0.994141 0.500000
vt 0.994141 0.500000
vt 0.994141 0.500000
vt 0.994141 0.500000
vt 0.994141 0.500000
vt 0.994141 0.500000
vt 0.994141 0.500000
vt 0.994141 0.500000
vn -1.0000 0.0000 0.0000
vn 1.0000 0.0000 0.0000
vn 0.0000 0.0000 1.0000
vn 0.0000 0.0000 -1.0000
vn 0.0000 -1.0000 -0.0000
vn 0.0000 1.0000 0.0000
usemtl palette
s 1
f 1/1/1 2/2/1 3/3/1
f 4/4/1 2/2/1 1/1/1
f 5/5/1 6/6/1 7/7/1
f 8/8/1 6/6/1 5/5/1
f 9/9/1 6/6/1 8/8/1
f 10/10/1 5/5/1 11/11/1
f 10/10/1 8/8/1 5/5/1
f 12/12/1 8/8/1 10/10/1
f 13/13/1 14/14/1 15/15/1
f 16/16/1 14/14/1 13/13/1
f 17/17/2 18/18/2 19/19/2
f 19/19/2 18/18/2 20/20/2
f 21/21/2 22/22/2 23/23/2
f 23/23/2 22/22/2 24/24/2
f 24/24/2 22/22/2 25/25/2
f 20/20/2 23/23/2 26/26/2
f 23/23/2 24/24/2 26/26/2
f 26/26/2 24/24/2 27/27/2
f 28/28/2 29/29/2 30/30/2
f 30/30/2 29/29/2 31/31/2
f 32/32/3 33/33/3 34/34/3
f 35/35/3 33/33/3 32/32/3
f 36/36/3 37/37/3 38/38/3
f 39/39/3 36/36/3 38/38/3
f 39/39/3 40/40/3 36/36/3
f 41/41/3 40/40/3 39/39/3
f 42/42/3 40/40/3 41/41/3
f 43/43/3 40/40/3 42/42/3
f 44/44/3 42/42/3 45/45/3
f 46/46/3 42/42/3 44/44/3
f 47/47/4 48/48/4 49/49/4
f 49/49/4 48/48/4 50/50/4
f 51/51/4 52/52/4 53/53/4
f 53/53/4 52/52/4 54/54/4
f 55/55/4 56/56/4 57/57/4
f 57/57/4 56/56/4 58/58/4
f 59/59/4 60/60/4 61/61/4
f 61/61/4 60/60/4 62/62/4
f 63/63/5 64/64/5 65/65/5
f 66/66/5 64/64/5 63/63/5
f 67/67/5 63/63/5 68/68/5
f 67/67/5 69/69/5 66/66/5
f 67/67/5 66/66/5 63/63/5
f 70/70/5 69/69/5 67/67/5
f 71/71/5 69/69/5 70/70/5
f 72/72/5 69/69/5 71/71/5
f 73/73/5 71/71/5 70/70/5
f 74/74/5 71/71/5 73/73/5
f 75/75/6 76/76/6 77/77/6
f 77/77/6 76/76/6 78/78/6
f 79/79/6 80/80/6 81/81/6
f 81/81/6 80/80/6 82/82/6
f 78/78/6 83/83/6 84/84/6
f 84/84/6 83/83/6 85/85/6
f 86/86/6 87/87/6 88/88/6
f 88/88/6 87/87/6 89/89/6
f 90/90/6 91/91/6 92/92/6
f 92/92/6 91/91/6 93/93/6
